# 1 "clock_config.c"
# 1 "<built-in>" 1
# 1 "<built-in>" 3
# 346 "<built-in>" 3
# 1 "<command line>" 1
# 1 "<built-in>" 2
# 1 "clock_config.c" 2
# 28 "clock_config.c"
# 1 "./fsl_power.h" 1
# 11 "./fsl_power.h"
# 1 "./fsl_common.h" 1
# 12 "./fsl_common.h"
# 1 "/usr/include/assert.h" 1 3 4
# 35 "/usr/include/assert.h" 3 4
# 1 "/usr/include/features.h" 1 3 4
# 428 "/usr/include/features.h" 3 4
# 1 "/usr/include/stdc-predef.h" 1 3 4
# 429 "/usr/include/features.h" 2 3 4
# 450 "/usr/include/features.h" 3 4
# 1 "/usr/include/sys/cdefs.h" 1 3 4
# 460 "/usr/include/sys/cdefs.h" 3 4
# 1 "/usr/include/bits/wordsize.h" 1 3 4
# 461 "/usr/include/sys/cdefs.h" 2 3 4
# 1 "/usr/include/bits/long-double.h" 1 3 4
# 462 "/usr/include/sys/cdefs.h" 2 3 4
# 451 "/usr/include/features.h" 2 3 4
# 474 "/usr/include/features.h" 3 4
# 1 "/usr/include/gnu/stubs.h" 1 3 4
# 10 "/usr/include/gnu/stubs.h" 3 4
# 1 "/usr/include/gnu/stubs-64.h" 1 3 4
# 11 "/usr/include/gnu/stubs.h" 2 3 4
# 475 "/usr/include/features.h" 2 3 4
# 36 "/usr/include/assert.h" 2 3 4
# 67 "/usr/include/assert.h" 3 4
extern void __assert_fail (const char *__assertion, const char *__file,
      unsigned int __line, const char *__function)
     __attribute__ ((__nothrow__ )) __attribute__ ((__noreturn__));


extern void __assert_perror_fail (int __errnum, const char *__file,
      unsigned int __line, const char *__function)
     __attribute__ ((__nothrow__ )) __attribute__ ((__noreturn__));




extern void __assert (const char *__assertion, const char *__file, int __line)
     __attribute__ ((__nothrow__ )) __attribute__ ((__noreturn__));
# 13 "./fsl_common.h" 2
# 1 "/usr/lib/clang/9.0.0/include/stdbool.h" 1 3
# 14 "./fsl_common.h" 2
# 1 "/usr/lib/clang/9.0.0/include/stdint.h" 1 3
# 52 "/usr/lib/clang/9.0.0/include/stdint.h" 3
# 1 "/usr/include/stdint.h" 1 3 4
# 26 "/usr/include/stdint.h" 3 4
# 1 "/usr/include/bits/libc-header-start.h" 1 3 4
# 27 "/usr/include/stdint.h" 2 3 4
# 1 "/usr/include/bits/types.h" 1 3 4
# 27 "/usr/include/bits/types.h" 3 4
# 1 "/usr/include/bits/wordsize.h" 1 3 4
# 28 "/usr/include/bits/types.h" 2 3 4
# 1 "/usr/include/bits/timesize.h" 1 3 4
# 29 "/usr/include/bits/types.h" 2 3 4


typedef unsigned char __u_char;
typedef unsigned short int __u_short;
typedef unsigned int __u_int;
typedef unsigned long int __u_long;


typedef signed char __int8_t;
typedef unsigned char __uint8_t;
typedef signed short int __int16_t;
typedef unsigned short int __uint16_t;
typedef signed int __int32_t;
typedef unsigned int __uint32_t;

typedef signed long int __int64_t;
typedef unsigned long int __uint64_t;






typedef __int8_t __int_least8_t;
typedef __uint8_t __uint_least8_t;
typedef __int16_t __int_least16_t;
typedef __uint16_t __uint_least16_t;
typedef __int32_t __int_least32_t;
typedef __uint32_t __uint_least32_t;
typedef __int64_t __int_least64_t;
typedef __uint64_t __uint_least64_t;



typedef long int __quad_t;
typedef unsigned long int __u_quad_t;







typedef long int __intmax_t;
typedef unsigned long int __uintmax_t;
# 141 "/usr/include/bits/types.h" 3 4
# 1 "/usr/include/bits/typesizes.h" 1 3 4
# 142 "/usr/include/bits/types.h" 2 3 4
# 1 "/usr/include/bits/time64.h" 1 3 4
# 143 "/usr/include/bits/types.h" 2 3 4


typedef unsigned long int __dev_t;
typedef unsigned int __uid_t;
typedef unsigned int __gid_t;
typedef unsigned long int __ino_t;
typedef unsigned long int __ino64_t;
typedef unsigned int __mode_t;
typedef unsigned long int __nlink_t;
typedef long int __off_t;
typedef long int __off64_t;
typedef int __pid_t;
typedef struct { int __val[2]; } __fsid_t;
typedef long int __clock_t;
typedef unsigned long int __rlim_t;
typedef unsigned long int __rlim64_t;
typedef unsigned int __id_t;
typedef long int __time_t;
typedef unsigned int __useconds_t;
typedef long int __suseconds_t;

typedef int __daddr_t;
typedef int __key_t;


typedef int __clockid_t;


typedef void * __timer_t;


typedef long int __blksize_t;




typedef long int __blkcnt_t;
typedef long int __blkcnt64_t;


typedef unsigned long int __fsblkcnt_t;
typedef unsigned long int __fsblkcnt64_t;


typedef unsigned long int __fsfilcnt_t;
typedef unsigned long int __fsfilcnt64_t;


typedef long int __fsword_t;

typedef long int __ssize_t;


typedef long int __syscall_slong_t;

typedef unsigned long int __syscall_ulong_t;



typedef __off64_t __loff_t;
typedef char *__caddr_t;


typedef long int __intptr_t;


typedef unsigned int __socklen_t;




typedef int __sig_atomic_t;
# 28 "/usr/include/stdint.h" 2 3 4
# 1 "/usr/include/bits/wchar.h" 1 3 4
# 29 "/usr/include/stdint.h" 2 3 4
# 1 "/usr/include/bits/wordsize.h" 1 3 4
# 30 "/usr/include/stdint.h" 2 3 4




# 1 "/usr/include/bits/stdint-intn.h" 1 3 4
# 24 "/usr/include/bits/stdint-intn.h" 3 4
typedef __int8_t int8_t;
typedef __int16_t int16_t;
typedef __int32_t int32_t;
typedef __int64_t int64_t;
# 35 "/usr/include/stdint.h" 2 3 4


# 1 "/usr/include/bits/stdint-uintn.h" 1 3 4
# 24 "/usr/include/bits/stdint-uintn.h" 3 4
typedef __uint8_t uint8_t;
typedef __uint16_t uint16_t;
typedef __uint32_t uint32_t;
typedef __uint64_t uint64_t;
# 38 "/usr/include/stdint.h" 2 3 4





typedef __int_least8_t int_least8_t;
typedef __int_least16_t int_least16_t;
typedef __int_least32_t int_least32_t;
typedef __int_least64_t int_least64_t;


typedef __uint_least8_t uint_least8_t;
typedef __uint_least16_t uint_least16_t;
typedef __uint_least32_t uint_least32_t;
typedef __uint_least64_t uint_least64_t;





typedef signed char int_fast8_t;

typedef long int int_fast16_t;
typedef long int int_fast32_t;
typedef long int int_fast64_t;
# 71 "/usr/include/stdint.h" 3 4
typedef unsigned char uint_fast8_t;

typedef unsigned long int uint_fast16_t;
typedef unsigned long int uint_fast32_t;
typedef unsigned long int uint_fast64_t;
# 87 "/usr/include/stdint.h" 3 4
typedef long int intptr_t;


typedef unsigned long int uintptr_t;
# 101 "/usr/include/stdint.h" 3 4
typedef __intmax_t intmax_t;
typedef __uintmax_t uintmax_t;
# 53 "/usr/lib/clang/9.0.0/include/stdint.h" 2 3
# 15 "./fsl_common.h" 2
# 1 "/usr/include/string.h" 1 3 4
# 26 "/usr/include/string.h" 3 4
# 1 "/usr/include/bits/libc-header-start.h" 1 3 4
# 27 "/usr/include/string.h" 2 3 4






# 1 "/usr/lib/clang/9.0.0/include/stddef.h" 1 3 4
# 46 "/usr/lib/clang/9.0.0/include/stddef.h" 3 4
typedef long unsigned int size_t;
# 34 "/usr/include/string.h" 2 3 4








extern void *memcpy (void *__restrict __dest, const void *__restrict __src,
       size_t __n) __attribute__ ((__nothrow__ )) __attribute__ ((__nonnull__ (1, 2)));


extern void *memmove (void *__dest, const void *__src, size_t __n)
     __attribute__ ((__nothrow__ )) __attribute__ ((__nonnull__ (1, 2)));





extern void *memccpy (void *__restrict __dest, const void *__restrict __src,
        int __c, size_t __n)
     __attribute__ ((__nothrow__ )) __attribute__ ((__nonnull__ (1, 2)));




extern void *memset (void *__s, int __c, size_t __n) __attribute__ ((__nothrow__ )) __attribute__ ((__nonnull__ (1)));


extern int memcmp (const void *__s1, const void *__s2, size_t __n)
     __attribute__ ((__nothrow__ )) __attribute__ ((__pure__)) __attribute__ ((__nonnull__ (1, 2)));
# 90 "/usr/include/string.h" 3 4
extern void *memchr (const void *__s, int __c, size_t __n)
      __attribute__ ((__nothrow__ )) __attribute__ ((__pure__)) __attribute__ ((__nonnull__ (1)));
# 121 "/usr/include/string.h" 3 4
extern char *strcpy (char *__restrict __dest, const char *__restrict __src)
     __attribute__ ((__nothrow__ )) __attribute__ ((__nonnull__ (1, 2)));

extern char *strncpy (char *__restrict __dest,
        const char *__restrict __src, size_t __n)
     __attribute__ ((__nothrow__ )) __attribute__ ((__nonnull__ (1, 2)));


extern char *strcat (char *__restrict __dest, const char *__restrict __src)
     __attribute__ ((__nothrow__ )) __attribute__ ((__nonnull__ (1, 2)));

extern char *strncat (char *__restrict __dest, const char *__restrict __src,
        size_t __n) __attribute__ ((__nothrow__ )) __attribute__ ((__nonnull__ (1, 2)));


extern int strcmp (const char *__s1, const char *__s2)
     __attribute__ ((__nothrow__ )) __attribute__ ((__pure__)) __attribute__ ((__nonnull__ (1, 2)));

extern int strncmp (const char *__s1, const char *__s2, size_t __n)
     __attribute__ ((__nothrow__ )) __attribute__ ((__pure__)) __attribute__ ((__nonnull__ (1, 2)));


extern int strcoll (const char *__s1, const char *__s2)
     __attribute__ ((__nothrow__ )) __attribute__ ((__pure__)) __attribute__ ((__nonnull__ (1, 2)));

extern size_t strxfrm (char *__restrict __dest,
         const char *__restrict __src, size_t __n)
     __attribute__ ((__nothrow__ )) __attribute__ ((__nonnull__ (2)));




# 1 "/usr/include/bits/types/locale_t.h" 1 3 4
# 22 "/usr/include/bits/types/locale_t.h" 3 4
# 1 "/usr/include/bits/types/__locale_t.h" 1 3 4
# 28 "/usr/include/bits/types/__locale_t.h" 3 4
struct __locale_struct
{

  struct __locale_data *__locales[13];


  const unsigned short int *__ctype_b;
  const int *__ctype_tolower;
  const int *__ctype_toupper;


  const char *__names[13];
};

typedef struct __locale_struct *__locale_t;
# 23 "/usr/include/bits/types/locale_t.h" 2 3 4

typedef __locale_t locale_t;
# 153 "/usr/include/string.h" 2 3 4


extern int strcoll_l (const char *__s1, const char *__s2, locale_t __l)
     __attribute__ ((__nothrow__ )) __attribute__ ((__pure__)) __attribute__ ((__nonnull__ (1, 2, 3)));


extern size_t strxfrm_l (char *__dest, const char *__src, size_t __n,
    locale_t __l) __attribute__ ((__nothrow__ )) __attribute__ ((__nonnull__ (2, 4)));





extern char *strdup (const char *__s)
     __attribute__ ((__nothrow__ )) __attribute__ ((__malloc__)) __attribute__ ((__nonnull__ (1)));






extern char *strndup (const char *__string, size_t __n)
     __attribute__ ((__nothrow__ )) __attribute__ ((__malloc__)) __attribute__ ((__nonnull__ (1)));
# 225 "/usr/include/string.h" 3 4
extern char *strchr (const char *__s, int __c)
     __attribute__ ((__nothrow__ )) __attribute__ ((__pure__)) __attribute__ ((__nonnull__ (1)));
# 252 "/usr/include/string.h" 3 4
extern char *strrchr (const char *__s, int __c)
     __attribute__ ((__nothrow__ )) __attribute__ ((__pure__)) __attribute__ ((__nonnull__ (1)));
# 272 "/usr/include/string.h" 3 4
extern size_t strcspn (const char *__s, const char *__reject)
     __attribute__ ((__nothrow__ )) __attribute__ ((__pure__)) __attribute__ ((__nonnull__ (1, 2)));


extern size_t strspn (const char *__s, const char *__accept)
     __attribute__ ((__nothrow__ )) __attribute__ ((__pure__)) __attribute__ ((__nonnull__ (1, 2)));
# 302 "/usr/include/string.h" 3 4
extern char *strpbrk (const char *__s, const char *__accept)
     __attribute__ ((__nothrow__ )) __attribute__ ((__pure__)) __attribute__ ((__nonnull__ (1, 2)));
# 329 "/usr/include/string.h" 3 4
extern char *strstr (const char *__haystack, const char *__needle)
     __attribute__ ((__nothrow__ )) __attribute__ ((__pure__)) __attribute__ ((__nonnull__ (1, 2)));




extern char *strtok (char *__restrict __s, const char *__restrict __delim)
     __attribute__ ((__nothrow__ )) __attribute__ ((__nonnull__ (2)));



extern char *__strtok_r (char *__restrict __s,
    const char *__restrict __delim,
    char **__restrict __save_ptr)
     __attribute__ ((__nothrow__ )) __attribute__ ((__nonnull__ (2, 3)));

extern char *strtok_r (char *__restrict __s, const char *__restrict __delim,
         char **__restrict __save_ptr)
     __attribute__ ((__nothrow__ )) __attribute__ ((__nonnull__ (2, 3)));
# 384 "/usr/include/string.h" 3 4
extern size_t strlen (const char *__s)
     __attribute__ ((__nothrow__ )) __attribute__ ((__pure__)) __attribute__ ((__nonnull__ (1)));




extern size_t strnlen (const char *__string, size_t __maxlen)
     __attribute__ ((__nothrow__ )) __attribute__ ((__pure__)) __attribute__ ((__nonnull__ (1)));




extern char *strerror (int __errnum) __attribute__ ((__nothrow__ ));
# 409 "/usr/include/string.h" 3 4
extern int strerror_r (int __errnum, char *__buf, size_t __buflen) __asm__ ("" "__xpg_strerror_r") __attribute__ ((__nothrow__ )) __attribute__ ((__nonnull__ (2)));
# 427 "/usr/include/string.h" 3 4
extern char *strerror_l (int __errnum, locale_t __l) __attribute__ ((__nothrow__ ));




# 1 "/usr/include/strings.h" 1 3 4
# 23 "/usr/include/strings.h" 3 4
# 1 "/usr/lib/clang/9.0.0/include/stddef.h" 1 3 4
# 24 "/usr/include/strings.h" 2 3 4
# 34 "/usr/include/strings.h" 3 4
extern int bcmp (const void *__s1, const void *__s2, size_t __n)
     __attribute__ ((__nothrow__ )) __attribute__ ((__pure__)) __attribute__ ((__nonnull__ (1, 2)));


extern void bcopy (const void *__src, void *__dest, size_t __n)
  __attribute__ ((__nothrow__ )) __attribute__ ((__nonnull__ (1, 2)));


extern void bzero (void *__s, size_t __n) __attribute__ ((__nothrow__ )) __attribute__ ((__nonnull__ (1)));
# 68 "/usr/include/strings.h" 3 4
extern char *index (const char *__s, int __c)
     __attribute__ ((__nothrow__ )) __attribute__ ((__pure__)) __attribute__ ((__nonnull__ (1)));
# 96 "/usr/include/strings.h" 3 4
extern char *rindex (const char *__s, int __c)
     __attribute__ ((__nothrow__ )) __attribute__ ((__pure__)) __attribute__ ((__nonnull__ (1)));






extern int ffs (int __i) __attribute__ ((__nothrow__ )) __attribute__ ((__const__));





extern int ffsl (long int __l) __attribute__ ((__nothrow__ )) __attribute__ ((__const__));
__extension__ extern int ffsll (long long int __ll)
     __attribute__ ((__nothrow__ )) __attribute__ ((__const__));



extern int strcasecmp (const char *__s1, const char *__s2)
     __attribute__ ((__nothrow__ )) __attribute__ ((__pure__)) __attribute__ ((__nonnull__ (1, 2)));


extern int strncasecmp (const char *__s1, const char *__s2, size_t __n)
     __attribute__ ((__nothrow__ )) __attribute__ ((__pure__)) __attribute__ ((__nonnull__ (1, 2)));






extern int strcasecmp_l (const char *__s1, const char *__s2, locale_t __loc)
     __attribute__ ((__nothrow__ )) __attribute__ ((__pure__)) __attribute__ ((__nonnull__ (1, 2, 3)));



extern int strncasecmp_l (const char *__s1, const char *__s2,
     size_t __n, locale_t __loc)
     __attribute__ ((__nothrow__ )) __attribute__ ((__pure__)) __attribute__ ((__nonnull__ (1, 2, 4)));
# 432 "/usr/include/string.h" 2 3 4



extern void explicit_bzero (void *__s, size_t __n) __attribute__ ((__nothrow__ )) __attribute__ ((__nonnull__ (1)));



extern char *strsep (char **__restrict __stringp,
       const char *__restrict __delim)
     __attribute__ ((__nothrow__ )) __attribute__ ((__nonnull__ (1, 2)));




extern char *strsignal (int __sig) __attribute__ ((__nothrow__ ));


extern char *__stpcpy (char *__restrict __dest, const char *__restrict __src)
     __attribute__ ((__nothrow__ )) __attribute__ ((__nonnull__ (1, 2)));
extern char *stpcpy (char *__restrict __dest, const char *__restrict __src)
     __attribute__ ((__nothrow__ )) __attribute__ ((__nonnull__ (1, 2)));



extern char *__stpncpy (char *__restrict __dest,
   const char *__restrict __src, size_t __n)
     __attribute__ ((__nothrow__ )) __attribute__ ((__nonnull__ (1, 2)));
extern char *stpncpy (char *__restrict __dest,
        const char *__restrict __src, size_t __n)
     __attribute__ ((__nothrow__ )) __attribute__ ((__nonnull__ (1, 2)));
# 16 "./fsl_common.h" 2
# 1 "/usr/include/stdlib.h" 1 3 4
# 25 "/usr/include/stdlib.h" 3 4
# 1 "/usr/include/bits/libc-header-start.h" 1 3 4
# 26 "/usr/include/stdlib.h" 2 3 4





# 1 "/usr/lib/clang/9.0.0/include/stddef.h" 1 3 4
# 74 "/usr/lib/clang/9.0.0/include/stddef.h" 3 4
typedef int wchar_t;
# 32 "/usr/include/stdlib.h" 2 3 4







# 1 "/usr/include/bits/waitflags.h" 1 3 4
# 40 "/usr/include/stdlib.h" 2 3 4
# 1 "/usr/include/bits/waitstatus.h" 1 3 4
# 41 "/usr/include/stdlib.h" 2 3 4
# 55 "/usr/include/stdlib.h" 3 4
# 1 "/usr/include/bits/floatn.h" 1 3 4
# 119 "/usr/include/bits/floatn.h" 3 4
# 1 "/usr/include/bits/floatn-common.h" 1 3 4
# 24 "/usr/include/bits/floatn-common.h" 3 4
# 1 "/usr/include/bits/long-double.h" 1 3 4
# 25 "/usr/include/bits/floatn-common.h" 2 3 4
# 214 "/usr/include/bits/floatn-common.h" 3 4
typedef float _Float32;
# 251 "/usr/include/bits/floatn-common.h" 3 4
typedef double _Float64;
# 268 "/usr/include/bits/floatn-common.h" 3 4
typedef double _Float32x;
# 285 "/usr/include/bits/floatn-common.h" 3 4
typedef long double _Float64x;
# 120 "/usr/include/bits/floatn.h" 2 3 4
# 56 "/usr/include/stdlib.h" 2 3 4


typedef struct
  {
    int quot;
    int rem;
  } div_t;



typedef struct
  {
    long int quot;
    long int rem;
  } ldiv_t;





__extension__ typedef struct
  {
    long long int quot;
    long long int rem;
  } lldiv_t;
# 97 "/usr/include/stdlib.h" 3 4
extern size_t __ctype_get_mb_cur_max (void) __attribute__ ((__nothrow__ )) ;



extern double atof (const char *__nptr)
     __attribute__ ((__nothrow__ )) __attribute__ ((__pure__)) __attribute__ ((__nonnull__ (1))) ;

extern int atoi (const char *__nptr)
     __attribute__ ((__nothrow__ )) __attribute__ ((__pure__)) __attribute__ ((__nonnull__ (1))) ;

extern long int atol (const char *__nptr)
     __attribute__ ((__nothrow__ )) __attribute__ ((__pure__)) __attribute__ ((__nonnull__ (1))) ;



__extension__ extern long long int atoll (const char *__nptr)
     __attribute__ ((__nothrow__ )) __attribute__ ((__pure__)) __attribute__ ((__nonnull__ (1))) ;



extern double strtod (const char *__restrict __nptr,
        char **__restrict __endptr)
     __attribute__ ((__nothrow__ )) __attribute__ ((__nonnull__ (1)));



extern float strtof (const char *__restrict __nptr,
       char **__restrict __endptr) __attribute__ ((__nothrow__ )) __attribute__ ((__nonnull__ (1)));

extern long double strtold (const char *__restrict __nptr,
       char **__restrict __endptr)
     __attribute__ ((__nothrow__ )) __attribute__ ((__nonnull__ (1)));
# 176 "/usr/include/stdlib.h" 3 4
extern long int strtol (const char *__restrict __nptr,
   char **__restrict __endptr, int __base)
     __attribute__ ((__nothrow__ )) __attribute__ ((__nonnull__ (1)));

extern unsigned long int strtoul (const char *__restrict __nptr,
      char **__restrict __endptr, int __base)
     __attribute__ ((__nothrow__ )) __attribute__ ((__nonnull__ (1)));



__extension__
extern long long int strtoq (const char *__restrict __nptr,
        char **__restrict __endptr, int __base)
     __attribute__ ((__nothrow__ )) __attribute__ ((__nonnull__ (1)));

__extension__
extern unsigned long long int strtouq (const char *__restrict __nptr,
           char **__restrict __endptr, int __base)
     __attribute__ ((__nothrow__ )) __attribute__ ((__nonnull__ (1)));




__extension__
extern long long int strtoll (const char *__restrict __nptr,
         char **__restrict __endptr, int __base)
     __attribute__ ((__nothrow__ )) __attribute__ ((__nonnull__ (1)));

__extension__
extern unsigned long long int strtoull (const char *__restrict __nptr,
     char **__restrict __endptr, int __base)
     __attribute__ ((__nothrow__ )) __attribute__ ((__nonnull__ (1)));
# 385 "/usr/include/stdlib.h" 3 4
extern char *l64a (long int __n) __attribute__ ((__nothrow__ )) ;


extern long int a64l (const char *__s)
     __attribute__ ((__nothrow__ )) __attribute__ ((__pure__)) __attribute__ ((__nonnull__ (1))) ;





# 1 "/usr/include/sys/types.h" 1 3 4
# 33 "/usr/include/sys/types.h" 3 4
typedef __u_char u_char;
typedef __u_short u_short;
typedef __u_int u_int;
typedef __u_long u_long;
typedef __quad_t quad_t;
typedef __u_quad_t u_quad_t;
typedef __fsid_t fsid_t;


typedef __loff_t loff_t;




typedef __ino_t ino_t;
# 59 "/usr/include/sys/types.h" 3 4
typedef __dev_t dev_t;




typedef __gid_t gid_t;




typedef __mode_t mode_t;




typedef __nlink_t nlink_t;




typedef __uid_t uid_t;





typedef __off_t off_t;
# 97 "/usr/include/sys/types.h" 3 4
typedef __pid_t pid_t;





typedef __id_t id_t;




typedef __ssize_t ssize_t;





typedef __daddr_t daddr_t;
typedef __caddr_t caddr_t;





typedef __key_t key_t;





# 1 "/usr/include/bits/types/clock_t.h" 1 3 4






typedef __clock_t clock_t;
# 127 "/usr/include/sys/types.h" 2 3 4

# 1 "/usr/include/bits/types/clockid_t.h" 1 3 4






typedef __clockid_t clockid_t;
# 129 "/usr/include/sys/types.h" 2 3 4
# 1 "/usr/include/bits/types/time_t.h" 1 3 4






typedef __time_t time_t;
# 130 "/usr/include/sys/types.h" 2 3 4
# 1 "/usr/include/bits/types/timer_t.h" 1 3 4






typedef __timer_t timer_t;
# 131 "/usr/include/sys/types.h" 2 3 4
# 144 "/usr/include/sys/types.h" 3 4
# 1 "/usr/lib/clang/9.0.0/include/stddef.h" 1 3 4
# 145 "/usr/include/sys/types.h" 2 3 4



typedef unsigned long int ulong;
typedef unsigned short int ushort;
typedef unsigned int uint;







typedef __uint8_t u_int8_t;
typedef __uint16_t u_int16_t;
typedef __uint32_t u_int32_t;
typedef __uint64_t u_int64_t;


typedef int register_t __attribute__ ((__mode__ (__word__)));
# 176 "/usr/include/sys/types.h" 3 4
# 1 "/usr/include/endian.h" 1 3 4
# 36 "/usr/include/endian.h" 3 4
# 1 "/usr/include/bits/endian.h" 1 3 4
# 37 "/usr/include/endian.h" 2 3 4
# 60 "/usr/include/endian.h" 3 4
# 1 "/usr/include/bits/byteswap.h" 1 3 4
# 33 "/usr/include/bits/byteswap.h" 3 4
static __inline __uint16_t
__bswap_16 (__uint16_t __bsx)
{



  return ((__uint16_t) ((((__bsx) >> 8) & 0xff) | (((__bsx) & 0xff) << 8)));

}






static __inline __uint32_t
__bswap_32 (__uint32_t __bsx)
{



  return ((((__bsx) & 0xff000000u) >> 24) | (((__bsx) & 0x00ff0000u) >> 8) | (((__bsx) & 0x0000ff00u) << 8) | (((__bsx) & 0x000000ffu) << 24));

}
# 69 "/usr/include/bits/byteswap.h" 3 4
__extension__ static __inline __uint64_t
__bswap_64 (__uint64_t __bsx)
{



  return ((((__bsx) & 0xff00000000000000ull) >> 56) | (((__bsx) & 0x00ff000000000000ull) >> 40) | (((__bsx) & 0x0000ff0000000000ull) >> 24) | (((__bsx) & 0x000000ff00000000ull) >> 8) | (((__bsx) & 0x00000000ff000000ull) << 8) | (((__bsx) & 0x0000000000ff0000ull) << 24) | (((__bsx) & 0x000000000000ff00ull) << 40) | (((__bsx) & 0x00000000000000ffull) << 56));

}
# 61 "/usr/include/endian.h" 2 3 4
# 1 "/usr/include/bits/uintn-identity.h" 1 3 4
# 32 "/usr/include/bits/uintn-identity.h" 3 4
static __inline __uint16_t
__uint16_identity (__uint16_t __x)
{
  return __x;
}

static __inline __uint32_t
__uint32_identity (__uint32_t __x)
{
  return __x;
}

static __inline __uint64_t
__uint64_identity (__uint64_t __x)
{
  return __x;
}
# 62 "/usr/include/endian.h" 2 3 4
# 177 "/usr/include/sys/types.h" 2 3 4


# 1 "/usr/include/sys/select.h" 1 3 4
# 30 "/usr/include/sys/select.h" 3 4
# 1 "/usr/include/bits/select.h" 1 3 4
# 22 "/usr/include/bits/select.h" 3 4
# 1 "/usr/include/bits/wordsize.h" 1 3 4
# 23 "/usr/include/bits/select.h" 2 3 4
# 31 "/usr/include/sys/select.h" 2 3 4


# 1 "/usr/include/bits/types/sigset_t.h" 1 3 4



# 1 "/usr/include/bits/types/__sigset_t.h" 1 3 4




typedef struct
{
  unsigned long int __val[(1024 / (8 * sizeof (unsigned long int)))];
} __sigset_t;
# 5 "/usr/include/bits/types/sigset_t.h" 2 3 4


typedef __sigset_t sigset_t;
# 34 "/usr/include/sys/select.h" 2 3 4



# 1 "/usr/include/bits/types/struct_timeval.h" 1 3 4







struct timeval
{
  __time_t tv_sec;
  __suseconds_t tv_usec;
};
# 38 "/usr/include/sys/select.h" 2 3 4

# 1 "/usr/include/bits/types/struct_timespec.h" 1 3 4








struct timespec
{
  __time_t tv_sec;
  __syscall_slong_t tv_nsec;
};
# 40 "/usr/include/sys/select.h" 2 3 4



typedef __suseconds_t suseconds_t;





typedef long int __fd_mask;
# 59 "/usr/include/sys/select.h" 3 4
typedef struct
  {






    __fd_mask __fds_bits[1024 / (8 * (int) sizeof (__fd_mask))];


  } fd_set;






typedef __fd_mask fd_mask;
# 101 "/usr/include/sys/select.h" 3 4
extern int select (int __nfds, fd_set *__restrict __readfds,
     fd_set *__restrict __writefds,
     fd_set *__restrict __exceptfds,
     struct timeval *__restrict __timeout);
# 113 "/usr/include/sys/select.h" 3 4
extern int pselect (int __nfds, fd_set *__restrict __readfds,
      fd_set *__restrict __writefds,
      fd_set *__restrict __exceptfds,
      const struct timespec *__restrict __timeout,
      const __sigset_t *__restrict __sigmask);
# 180 "/usr/include/sys/types.h" 2 3 4





typedef __blksize_t blksize_t;






typedef __blkcnt_t blkcnt_t;



typedef __fsblkcnt_t fsblkcnt_t;



typedef __fsfilcnt_t fsfilcnt_t;
# 227 "/usr/include/sys/types.h" 3 4
# 1 "/usr/include/bits/pthreadtypes.h" 1 3 4
# 23 "/usr/include/bits/pthreadtypes.h" 3 4
# 1 "/usr/include/bits/thread-shared-types.h" 1 3 4
# 77 "/usr/include/bits/thread-shared-types.h" 3 4
# 1 "/usr/include/bits/pthreadtypes-arch.h" 1 3 4
# 21 "/usr/include/bits/pthreadtypes-arch.h" 3 4
# 1 "/usr/include/bits/wordsize.h" 1 3 4
# 22 "/usr/include/bits/pthreadtypes-arch.h" 2 3 4
# 65 "/usr/include/bits/pthreadtypes-arch.h" 3 4
struct __pthread_rwlock_arch_t
{
  unsigned int __readers;
  unsigned int __writers;
  unsigned int __wrphase_futex;
  unsigned int __writers_futex;
  unsigned int __pad3;
  unsigned int __pad4;

  int __cur_writer;
  int __shared;
  signed char __rwelision;




  unsigned char __pad1[7];


  unsigned long int __pad2;


  unsigned int __flags;
# 99 "/usr/include/bits/pthreadtypes-arch.h" 3 4
};
# 78 "/usr/include/bits/thread-shared-types.h" 2 3 4




typedef struct __pthread_internal_list
{
  struct __pthread_internal_list *__prev;
  struct __pthread_internal_list *__next;
} __pthread_list_t;
# 118 "/usr/include/bits/thread-shared-types.h" 3 4
struct __pthread_mutex_s
{
  int __lock ;
  unsigned int __count;
  int __owner;

  unsigned int __nusers;
# 148 "/usr/include/bits/thread-shared-types.h" 3 4
  int __kind;





  short __spins; short __elision;
  __pthread_list_t __list;
# 166 "/usr/include/bits/thread-shared-types.h" 3 4
};




struct __pthread_cond_s
{
  __extension__ union
  {
    __extension__ unsigned long long int __wseq;
    struct
    {
      unsigned int __low;
      unsigned int __high;
    } __wseq32;
  };
  __extension__ union
  {
    __extension__ unsigned long long int __g1_start;
    struct
    {
      unsigned int __low;
      unsigned int __high;
    } __g1_start32;
  };
  unsigned int __g_refs[2] ;
  unsigned int __g_size[2];
  unsigned int __g1_orig_size;
  unsigned int __wrefs;
  unsigned int __g_signals[2];
};
# 24 "/usr/include/bits/pthreadtypes.h" 2 3 4



typedef unsigned long int pthread_t;




typedef union
{
  char __size[4];
  int __align;
} pthread_mutexattr_t;




typedef union
{
  char __size[4];
  int __align;
} pthread_condattr_t;



typedef unsigned int pthread_key_t;



typedef int pthread_once_t;


union pthread_attr_t
{
  char __size[56];
  long int __align;
};

typedef union pthread_attr_t pthread_attr_t;




typedef union
{
  struct __pthread_mutex_s __data;
  char __size[40];
  long int __align;
} pthread_mutex_t;


typedef union
{
  struct __pthread_cond_s __data;
  char __size[48];
  __extension__ long long int __align;
} pthread_cond_t;





typedef union
{
  struct __pthread_rwlock_arch_t __data;
  char __size[56];
  long int __align;
} pthread_rwlock_t;

typedef union
{
  char __size[8];
  long int __align;
} pthread_rwlockattr_t;





typedef volatile int pthread_spinlock_t;




typedef union
{
  char __size[32];
  long int __align;
} pthread_barrier_t;

typedef union
{
  char __size[4];
  int __align;
} pthread_barrierattr_t;
# 228 "/usr/include/sys/types.h" 2 3 4
# 395 "/usr/include/stdlib.h" 2 3 4






extern long int random (void) __attribute__ ((__nothrow__ ));


extern void srandom (unsigned int __seed) __attribute__ ((__nothrow__ ));





extern char *initstate (unsigned int __seed, char *__statebuf,
   size_t __statelen) __attribute__ ((__nothrow__ )) __attribute__ ((__nonnull__ (2)));



extern char *setstate (char *__statebuf) __attribute__ ((__nothrow__ )) __attribute__ ((__nonnull__ (1)));







struct random_data
  {
    int32_t *fptr;
    int32_t *rptr;
    int32_t *state;
    int rand_type;
    int rand_deg;
    int rand_sep;
    int32_t *end_ptr;
  };

extern int random_r (struct random_data *__restrict __buf,
       int32_t *__restrict __result) __attribute__ ((__nothrow__ )) __attribute__ ((__nonnull__ (1, 2)));

extern int srandom_r (unsigned int __seed, struct random_data *__buf)
     __attribute__ ((__nothrow__ )) __attribute__ ((__nonnull__ (2)));

extern int initstate_r (unsigned int __seed, char *__restrict __statebuf,
   size_t __statelen,
   struct random_data *__restrict __buf)
     __attribute__ ((__nothrow__ )) __attribute__ ((__nonnull__ (2, 4)));

extern int setstate_r (char *__restrict __statebuf,
         struct random_data *__restrict __buf)
     __attribute__ ((__nothrow__ )) __attribute__ ((__nonnull__ (1, 2)));





extern int rand (void) __attribute__ ((__nothrow__ ));

extern void srand (unsigned int __seed) __attribute__ ((__nothrow__ ));



extern int rand_r (unsigned int *__seed) __attribute__ ((__nothrow__ ));







extern double drand48 (void) __attribute__ ((__nothrow__ ));
extern double erand48 (unsigned short int __xsubi[3]) __attribute__ ((__nothrow__ )) __attribute__ ((__nonnull__ (1)));


extern long int lrand48 (void) __attribute__ ((__nothrow__ ));
extern long int nrand48 (unsigned short int __xsubi[3])
     __attribute__ ((__nothrow__ )) __attribute__ ((__nonnull__ (1)));


extern long int mrand48 (void) __attribute__ ((__nothrow__ ));
extern long int jrand48 (unsigned short int __xsubi[3])
     __attribute__ ((__nothrow__ )) __attribute__ ((__nonnull__ (1)));


extern void srand48 (long int __seedval) __attribute__ ((__nothrow__ ));
extern unsigned short int *seed48 (unsigned short int __seed16v[3])
     __attribute__ ((__nothrow__ )) __attribute__ ((__nonnull__ (1)));
extern void lcong48 (unsigned short int __param[7]) __attribute__ ((__nothrow__ )) __attribute__ ((__nonnull__ (1)));





struct drand48_data
  {
    unsigned short int __x[3];
    unsigned short int __old_x[3];
    unsigned short int __c;
    unsigned short int __init;
    __extension__ unsigned long long int __a;

  };


extern int drand48_r (struct drand48_data *__restrict __buffer,
        double *__restrict __result) __attribute__ ((__nothrow__ )) __attribute__ ((__nonnull__ (1, 2)));
extern int erand48_r (unsigned short int __xsubi[3],
        struct drand48_data *__restrict __buffer,
        double *__restrict __result) __attribute__ ((__nothrow__ )) __attribute__ ((__nonnull__ (1, 2)));


extern int lrand48_r (struct drand48_data *__restrict __buffer,
        long int *__restrict __result)
     __attribute__ ((__nothrow__ )) __attribute__ ((__nonnull__ (1, 2)));
extern int nrand48_r (unsigned short int __xsubi[3],
        struct drand48_data *__restrict __buffer,
        long int *__restrict __result)
     __attribute__ ((__nothrow__ )) __attribute__ ((__nonnull__ (1, 2)));


extern int mrand48_r (struct drand48_data *__restrict __buffer,
        long int *__restrict __result)
     __attribute__ ((__nothrow__ )) __attribute__ ((__nonnull__ (1, 2)));
extern int jrand48_r (unsigned short int __xsubi[3],
        struct drand48_data *__restrict __buffer,
        long int *__restrict __result)
     __attribute__ ((__nothrow__ )) __attribute__ ((__nonnull__ (1, 2)));


extern int srand48_r (long int __seedval, struct drand48_data *__buffer)
     __attribute__ ((__nothrow__ )) __attribute__ ((__nonnull__ (2)));

extern int seed48_r (unsigned short int __seed16v[3],
       struct drand48_data *__buffer) __attribute__ ((__nothrow__ )) __attribute__ ((__nonnull__ (1, 2)));

extern int lcong48_r (unsigned short int __param[7],
        struct drand48_data *__buffer)
     __attribute__ ((__nothrow__ )) __attribute__ ((__nonnull__ (1, 2)));




extern void *malloc (size_t __size) __attribute__ ((__nothrow__ )) __attribute__ ((__malloc__))
                                         ;

extern void *calloc (size_t __nmemb, size_t __size)
     __attribute__ ((__nothrow__ )) __attribute__ ((__malloc__)) ;






extern void *realloc (void *__ptr, size_t __size)
     __attribute__ ((__nothrow__ )) __attribute__ ((__warn_unused_result__)) ;







extern void *reallocarray (void *__ptr, size_t __nmemb, size_t __size)
     __attribute__ ((__nothrow__ )) __attribute__ ((__warn_unused_result__))
                                      ;



extern void free (void *__ptr) __attribute__ ((__nothrow__ ));



# 1 "/usr/include/alloca.h" 1 3 4
# 24 "/usr/include/alloca.h" 3 4
# 1 "/usr/lib/clang/9.0.0/include/stddef.h" 1 3 4
# 25 "/usr/include/alloca.h" 2 3 4







extern void *alloca (size_t __size) __attribute__ ((__nothrow__ ));
# 569 "/usr/include/stdlib.h" 2 3 4





extern void *valloc (size_t __size) __attribute__ ((__nothrow__ )) __attribute__ ((__malloc__))
                                         ;




extern int posix_memalign (void **__memptr, size_t __alignment, size_t __size)
     __attribute__ ((__nothrow__ )) __attribute__ ((__nonnull__ (1))) ;




extern void *aligned_alloc (size_t __alignment, size_t __size)
     __attribute__ ((__nothrow__ )) __attribute__ ((__malloc__)) ;



extern void abort (void) __attribute__ ((__nothrow__ )) __attribute__ ((__noreturn__));



extern int atexit (void (*__func) (void)) __attribute__ ((__nothrow__ )) __attribute__ ((__nonnull__ (1)));







extern int at_quick_exit (void (*__func) (void)) __attribute__ ((__nothrow__ )) __attribute__ ((__nonnull__ (1)));






extern int on_exit (void (*__func) (int __status, void *__arg), void *__arg)
     __attribute__ ((__nothrow__ )) __attribute__ ((__nonnull__ (1)));





extern void exit (int __status) __attribute__ ((__nothrow__ )) __attribute__ ((__noreturn__));





extern void quick_exit (int __status) __attribute__ ((__nothrow__ )) __attribute__ ((__noreturn__));





extern void _Exit (int __status) __attribute__ ((__nothrow__ )) __attribute__ ((__noreturn__));




extern char *getenv (const char *__name) __attribute__ ((__nothrow__ )) __attribute__ ((__nonnull__ (1))) ;
# 647 "/usr/include/stdlib.h" 3 4
extern int putenv (char *__string) __attribute__ ((__nothrow__ )) __attribute__ ((__nonnull__ (1)));





extern int setenv (const char *__name, const char *__value, int __replace)
     __attribute__ ((__nothrow__ )) __attribute__ ((__nonnull__ (2)));


extern int unsetenv (const char *__name) __attribute__ ((__nothrow__ )) __attribute__ ((__nonnull__ (1)));






extern int clearenv (void) __attribute__ ((__nothrow__ ));
# 675 "/usr/include/stdlib.h" 3 4
extern char *mktemp (char *__template) __attribute__ ((__nothrow__ )) __attribute__ ((__nonnull__ (1)));
# 688 "/usr/include/stdlib.h" 3 4
extern int mkstemp (char *__template) __attribute__ ((__nonnull__ (1))) ;
# 710 "/usr/include/stdlib.h" 3 4
extern int mkstemps (char *__template, int __suffixlen) __attribute__ ((__nonnull__ (1))) ;
# 731 "/usr/include/stdlib.h" 3 4
extern char *mkdtemp (char *__template) __attribute__ ((__nothrow__ )) __attribute__ ((__nonnull__ (1))) ;
# 784 "/usr/include/stdlib.h" 3 4
extern int system (const char *__command) ;
# 800 "/usr/include/stdlib.h" 3 4
extern char *realpath (const char *__restrict __name,
         char *__restrict __resolved) __attribute__ ((__nothrow__ )) ;






typedef int (*__compar_fn_t) (const void *, const void *);
# 820 "/usr/include/stdlib.h" 3 4
extern void *bsearch (const void *__key, const void *__base,
        size_t __nmemb, size_t __size, __compar_fn_t __compar)
     __attribute__ ((__nonnull__ (1, 2, 5))) ;







extern void qsort (void *__base, size_t __nmemb, size_t __size,
     __compar_fn_t __compar) __attribute__ ((__nonnull__ (1, 4)));
# 840 "/usr/include/stdlib.h" 3 4
extern int abs (int __x) __attribute__ ((__nothrow__ )) __attribute__ ((__const__)) ;
extern long int labs (long int __x) __attribute__ ((__nothrow__ )) __attribute__ ((__const__)) ;


__extension__ extern long long int llabs (long long int __x)
     __attribute__ ((__nothrow__ )) __attribute__ ((__const__)) ;






extern div_t div (int __numer, int __denom)
     __attribute__ ((__nothrow__ )) __attribute__ ((__const__)) ;
extern ldiv_t ldiv (long int __numer, long int __denom)
     __attribute__ ((__nothrow__ )) __attribute__ ((__const__)) ;


__extension__ extern lldiv_t lldiv (long long int __numer,
        long long int __denom)
     __attribute__ ((__nothrow__ )) __attribute__ ((__const__)) ;
# 872 "/usr/include/stdlib.h" 3 4
extern char *ecvt (double __value, int __ndigit, int *__restrict __decpt,
     int *__restrict __sign) __attribute__ ((__nothrow__ )) __attribute__ ((__nonnull__ (3, 4))) ;




extern char *fcvt (double __value, int __ndigit, int *__restrict __decpt,
     int *__restrict __sign) __attribute__ ((__nothrow__ )) __attribute__ ((__nonnull__ (3, 4))) ;




extern char *gcvt (double __value, int __ndigit, char *__buf)
     __attribute__ ((__nothrow__ )) __attribute__ ((__nonnull__ (3))) ;




extern char *qecvt (long double __value, int __ndigit,
      int *__restrict __decpt, int *__restrict __sign)
     __attribute__ ((__nothrow__ )) __attribute__ ((__nonnull__ (3, 4))) ;
extern char *qfcvt (long double __value, int __ndigit,
      int *__restrict __decpt, int *__restrict __sign)
     __attribute__ ((__nothrow__ )) __attribute__ ((__nonnull__ (3, 4))) ;
extern char *qgcvt (long double __value, int __ndigit, char *__buf)
     __attribute__ ((__nothrow__ )) __attribute__ ((__nonnull__ (3))) ;




extern int ecvt_r (double __value, int __ndigit, int *__restrict __decpt,
     int *__restrict __sign, char *__restrict __buf,
     size_t __len) __attribute__ ((__nothrow__ )) __attribute__ ((__nonnull__ (3, 4, 5)));
extern int fcvt_r (double __value, int __ndigit, int *__restrict __decpt,
     int *__restrict __sign, char *__restrict __buf,
     size_t __len) __attribute__ ((__nothrow__ )) __attribute__ ((__nonnull__ (3, 4, 5)));

extern int qecvt_r (long double __value, int __ndigit,
      int *__restrict __decpt, int *__restrict __sign,
      char *__restrict __buf, size_t __len)
     __attribute__ ((__nothrow__ )) __attribute__ ((__nonnull__ (3, 4, 5)));
extern int qfcvt_r (long double __value, int __ndigit,
      int *__restrict __decpt, int *__restrict __sign,
      char *__restrict __buf, size_t __len)
     __attribute__ ((__nothrow__ )) __attribute__ ((__nonnull__ (3, 4, 5)));





extern int mblen (const char *__s, size_t __n) __attribute__ ((__nothrow__ ));


extern int mbtowc (wchar_t *__restrict __pwc,
     const char *__restrict __s, size_t __n) __attribute__ ((__nothrow__ ));


extern int wctomb (char *__s, wchar_t __wchar) __attribute__ ((__nothrow__ ));



extern size_t mbstowcs (wchar_t *__restrict __pwcs,
   const char *__restrict __s, size_t __n) __attribute__ ((__nothrow__ ));

extern size_t wcstombs (char *__restrict __s,
   const wchar_t *__restrict __pwcs, size_t __n)
     __attribute__ ((__nothrow__ ));







extern int rpmatch (const char *__response) __attribute__ ((__nothrow__ )) __attribute__ ((__nonnull__ (1))) ;
# 957 "/usr/include/stdlib.h" 3 4
extern int getsubopt (char **__restrict __optionp,
        char *const *__restrict __tokens,
        char **__restrict __valuep)
     __attribute__ ((__nothrow__ )) __attribute__ ((__nonnull__ (1, 2, 3))) ;
# 1003 "/usr/include/stdlib.h" 3 4
extern int getloadavg (double __loadavg[], int __nelem)
     __attribute__ ((__nothrow__ )) __attribute__ ((__nonnull__ (1)));
# 1013 "/usr/include/stdlib.h" 3 4
# 1 "/usr/include/bits/stdlib-float.h" 1 3 4
# 1014 "/usr/include/stdlib.h" 2 3 4
# 17 "./fsl_common.h" 2





# 1 "./fsl_device_registers.h" 1
# 23 "./fsl_device_registers.h"
# 1 "./LPC845.h" 1
# 74 "./LPC845.h"
typedef enum IRQn {

  NotAvail_IRQn = -128,


  NonMaskableInt_IRQn = -14,
  HardFault_IRQn = -13,
  SVCall_IRQn = -5,
  PendSV_IRQn = -2,
  SysTick_IRQn = -1,


  SPI0_IRQn = 0,
  SPI1_IRQn = 1,
  DAC0_IRQn = 2,
  USART0_IRQn = 3,
  USART1_IRQn = 4,
  USART2_IRQn = 5,
  Reserved22_IRQn = 6,
  I2C1_IRQn = 7,
  I2C0_IRQn = 8,
  SCT0_IRQn = 9,
  MRT0_IRQn = 10,
  CMP_CAPT_IRQn = 11,
  WDT_IRQn = 12,
  BOD_IRQn = 13,
  FLASH_IRQn = 14,
  WKT_IRQn = 15,
  ADC0_SEQA_IRQn = 16,
  ADC0_SEQB_IRQn = 17,
  ADC0_THCMP_IRQn = 18,
  ADC0_OVR_IRQn = 19,
  DMA0_IRQn = 20,
  I2C2_IRQn = 21,
  I2C3_IRQn = 22,
  CTIMER0_IRQn = 23,
  PIN_INT0_IRQn = 24,
  PIN_INT1_IRQn = 25,
  PIN_INT2_IRQn = 26,
  PIN_INT3_IRQn = 27,
  PIN_INT4_IRQn = 28,
  PIN_INT5_DAC1_IRQn = 29,
  PIN_INT6_USART3_IRQn = 30,
  PIN_INT7_USART4_IRQn = 31
} IRQn_Type;
# 140 "./LPC845.h"
# 1 "./core_cm0plus.h" 1
# 29 "./core_cm0plus.h" 3
# 63 "./core_cm0plus.h" 3
# 1 "./cmsis_version.h" 1 3
# 29 "./cmsis_version.h" 3
# 64 "./core_cm0plus.h" 2 3
# 115 "./core_cm0plus.h" 3
# 1 "./cmsis_compiler.h" 1 3
# 48 "./cmsis_compiler.h" 3
# 1 "./cmsis_gcc.h" 1 3
# 29 "./cmsis_gcc.h" 3
#pragma GCC diagnostic push
#pragma GCC diagnostic ignored "-Wsign-conversion"
#pragma GCC diagnostic ignored "-Wconversion"
#pragma GCC diagnostic ignored "-Wunused-parameter"
# 71 "./cmsis_gcc.h" 3
#pragma GCC diagnostic push
#pragma GCC diagnostic ignored "-Wpacked"
#pragma GCC diagnostic ignored "-Wattributes"
 struct __attribute__((packed)) T_UINT32 { uint32_t v; };
#pragma GCC diagnostic pop



#pragma GCC diagnostic push
#pragma GCC diagnostic ignored "-Wpacked"
#pragma GCC diagnostic ignored "-Wattributes"
 struct __attribute__((packed, aligned(1))) T_UINT16_WRITE { uint16_t v; };
#pragma GCC diagnostic pop



#pragma GCC diagnostic push
#pragma GCC diagnostic ignored "-Wpacked"
#pragma GCC diagnostic ignored "-Wattributes"
 struct __attribute__((packed, aligned(1))) T_UINT16_READ { uint16_t v; };
#pragma GCC diagnostic pop



#pragma GCC diagnostic push
#pragma GCC diagnostic ignored "-Wpacked"
#pragma GCC diagnostic ignored "-Wattributes"
 struct __attribute__((packed, aligned(1))) T_UINT32_WRITE { uint32_t v; };
#pragma GCC diagnostic pop



#pragma GCC diagnostic push
#pragma GCC diagnostic ignored "-Wpacked"
#pragma GCC diagnostic ignored "-Wattributes"
 struct __attribute__((packed, aligned(1))) T_UINT32_READ { uint32_t v; };
#pragma GCC diagnostic pop
# 129 "./cmsis_gcc.h" 3
__attribute__((always_inline)) static inline void __enable_irq(void)
{
  __asm volatile ("cpsie i" : : : "memory");
}







__attribute__((always_inline)) static inline void __disable_irq(void)
{
  __asm volatile ("cpsid i" : : : "memory");
}







__attribute__((always_inline)) static inline uint32_t __get_CONTROL(void)
{
  uint32_t result;

  __asm volatile ("MRS %0, control" : "=r" (result) );
  return(result);
}
# 181 "./cmsis_gcc.h" 3
__attribute__((always_inline)) static inline void __set_CONTROL(uint32_t control)
{
  __asm volatile ("MSR control, %0" : : "r" (control) : "memory");
}
# 205 "./cmsis_gcc.h" 3
__attribute__((always_inline)) static inline uint32_t __get_IPSR(void)
{
  uint32_t result;

  __asm volatile ("MRS %0, ipsr" : "=r" (result) );
  return(result);
}







__attribute__((always_inline)) static inline uint32_t __get_APSR(void)
{
  uint32_t result;

  __asm volatile ("MRS %0, apsr" : "=r" (result) );
  return(result);
}







__attribute__((always_inline)) static inline uint32_t __get_xPSR(void)
{
  uint32_t result;

  __asm volatile ("MRS %0, xpsr" : "=r" (result) );
  return(result);
}







__attribute__((always_inline)) static inline uint32_t __get_PSP(void)
{
  register uint32_t result;

  __asm volatile ("MRS %0, psp" : "=r" (result) );
  return(result);
}
# 277 "./cmsis_gcc.h" 3
__attribute__((always_inline)) static inline void __set_PSP(uint32_t topOfProcStack)
{
  __asm volatile ("MSR psp, %0" : : "r" (topOfProcStack) : );
}
# 301 "./cmsis_gcc.h" 3
__attribute__((always_inline)) static inline uint32_t __get_MSP(void)
{
  register uint32_t result;

  __asm volatile ("MRS %0, msp" : "=r" (result) );
  return(result);
}
# 331 "./cmsis_gcc.h" 3
__attribute__((always_inline)) static inline void __set_MSP(uint32_t topOfMainStack)
{
  __asm volatile ("MSR msp, %0" : : "r" (topOfMainStack) : );
}
# 382 "./cmsis_gcc.h" 3
__attribute__((always_inline)) static inline uint32_t __get_PRIMASK(void)
{
  uint32_t result;

  __asm volatile ("MRS %0, primask" : "=r" (result) :: "memory");
  return(result);
}
# 412 "./cmsis_gcc.h" 3
__attribute__((always_inline)) static inline void __set_PRIMASK(uint32_t priMask)
{
  __asm volatile ("MSR primask, %0" : : "r" (priMask) : "memory");
}
# 869 "./cmsis_gcc.h" 3
__attribute__((always_inline)) static inline void __ISB(void)
{
  __asm volatile ("isb 0xF":::"memory");
}







__attribute__((always_inline)) static inline void __DSB(void)
{
  __asm volatile ("dsb 0xF":::"memory");
}







__attribute__((always_inline)) static inline void __DMB(void)
{
  __asm volatile ("dmb 0xF":::"memory");
}
# 903 "./cmsis_gcc.h" 3
__attribute__((always_inline)) static inline uint32_t __REV(uint32_t value)
{



  uint32_t result;

  __asm volatile ("rev %0, %1" : "=r" (result) : "r" (value) );
  return result;

}
# 922 "./cmsis_gcc.h" 3
__attribute__((always_inline)) static inline uint32_t __REV16(uint32_t value)
{
  uint32_t result;

  __asm volatile ("rev16 %0, %1" : "=r" (result) : "r" (value) );
  return result;
}
# 937 "./cmsis_gcc.h" 3
__attribute__((always_inline)) static inline int16_t __REVSH(int16_t value)
{



  int16_t result;

  __asm volatile ("revsh %0, %1" : "=r" (result) : "r" (value) );
  return result;

}
# 957 "./cmsis_gcc.h" 3
__attribute__((always_inline)) static inline uint32_t __ROR(uint32_t op1, uint32_t op2)
{
  op2 %= 32U;
  if (op2 == 0U)
  {
    return op1;
  }
  return (op1 >> op2) | (op1 << (32U - op2));
}
# 984 "./cmsis_gcc.h" 3
__attribute__((always_inline)) static inline uint32_t __RBIT(uint32_t value)
{
  uint32_t result;






  uint32_t s = (4U * 8U) - 1U;

  result = value;
  for (value >>= 1U; value != 0U; value >>= 1U)
  {
    result <<= 1U;
    result |= value & 1U;
    s--;
  }
  result <<= s;

  return result;
}
# 1302 "./cmsis_gcc.h" 3
__attribute__((always_inline)) static inline int32_t __SSAT(int32_t val, uint32_t sat)
{
  if ((sat >= 1U) && (sat <= 32U))
  {
    const int32_t max = (int32_t)((1U << (sat - 1U)) - 1U);
    const int32_t min = -1 - max ;
    if (val > max)
    {
      return max;
    }
    else if (val < min)
    {
      return min;
    }
  }
  return val;
}
# 1327 "./cmsis_gcc.h" 3
__attribute__((always_inline)) static inline uint32_t __USAT(int32_t val, uint32_t sat)
{
  if (sat <= 31U)
  {
    const uint32_t max = ((1U << sat) - 1U);
    if (val > (int32_t)max)
    {
      return max;
    }
    else if (val < 0)
    {
      return 0U;
    }
  }
  return (uint32_t)val;
}
# 2086 "./cmsis_gcc.h" 3
#pragma GCC diagnostic pop
# 49 "./cmsis_compiler.h" 2 3
# 116 "./core_cm0plus.h" 2 3
# 210 "./core_cm0plus.h" 3
typedef union
{
  struct
  {
    uint32_t _reserved0:28;
    uint32_t V:1;
    uint32_t C:1;
    uint32_t Z:1;
    uint32_t N:1;
  } b;
  uint32_t w;
} APSR_Type;
# 240 "./core_cm0plus.h" 3
typedef union
{
  struct
  {
    uint32_t ISR:9;
    uint32_t _reserved0:23;
  } b;
  uint32_t w;
} IPSR_Type;
# 258 "./core_cm0plus.h" 3
typedef union
{
  struct
  {
    uint32_t ISR:9;
    uint32_t _reserved0:15;
    uint32_t T:1;
    uint32_t _reserved1:3;
    uint32_t V:1;
    uint32_t C:1;
    uint32_t Z:1;
    uint32_t N:1;
  } b;
  uint32_t w;
} xPSR_Type;
# 297 "./core_cm0plus.h" 3
typedef union
{
  struct
  {
    uint32_t nPRIV:1;
    uint32_t SPSEL:1;
    uint32_t _reserved1:30;
  } b;
  uint32_t w;
} CONTROL_Type;
# 328 "./core_cm0plus.h" 3
typedef struct
{
  volatile uint32_t ISER[1U];
        uint32_t RESERVED0[31U];
  volatile uint32_t ICER[1U];
        uint32_t RSERVED1[31U];
  volatile uint32_t ISPR[1U];
        uint32_t RESERVED2[31U];
  volatile uint32_t ICPR[1U];
        uint32_t RESERVED3[31U];
        uint32_t RESERVED4[64U];
  volatile uint32_t IP[8U];
} NVIC_Type;
# 355 "./core_cm0plus.h" 3
typedef struct
{
  volatile const uint32_t CPUID;
  volatile uint32_t ICSR;

  volatile uint32_t VTOR;



  volatile uint32_t AIRCR;
  volatile uint32_t SCR;
  volatile uint32_t CCR;
        uint32_t RESERVED1;
  volatile uint32_t SHP[2U];
  volatile uint32_t SHCSR;
} SCB_Type;
# 472 "./core_cm0plus.h" 3
typedef struct
{
  volatile uint32_t CTRL;
  volatile uint32_t LOAD;
  volatile uint32_t VAL;
  volatile const uint32_t CALIB;
} SysTick_Type;
# 733 "./core_cm0plus.h" 3
static inline void __NVIC_EnableIRQ(IRQn_Type IRQn)
{
  if ((int32_t)(IRQn) >= 0)
  {
    ((NVIC_Type *) ((0xE000E000UL) + 0x0100UL) )->ISER[0U] = (uint32_t)(1UL << (((uint32_t)IRQn) & 0x1FUL));
  }
}
# 750 "./core_cm0plus.h" 3
static inline uint32_t __NVIC_GetEnableIRQ(IRQn_Type IRQn)
{
  if ((int32_t)(IRQn) >= 0)
  {
    return((uint32_t)(((((NVIC_Type *) ((0xE000E000UL) + 0x0100UL) )->ISER[0U] & (1UL << (((uint32_t)IRQn) & 0x1FUL))) != 0UL) ? 1UL : 0UL));
  }
  else
  {
    return(0U);
  }
}
# 769 "./core_cm0plus.h" 3
static inline void __NVIC_DisableIRQ(IRQn_Type IRQn)
{
  if ((int32_t)(IRQn) >= 0)
  {
    ((NVIC_Type *) ((0xE000E000UL) + 0x0100UL) )->ICER[0U] = (uint32_t)(1UL << (((uint32_t)IRQn) & 0x1FUL));
    __DSB();
    __ISB();
  }
}
# 788 "./core_cm0plus.h" 3
static inline uint32_t __NVIC_GetPendingIRQ(IRQn_Type IRQn)
{
  if ((int32_t)(IRQn) >= 0)
  {
    return((uint32_t)(((((NVIC_Type *) ((0xE000E000UL) + 0x0100UL) )->ISPR[0U] & (1UL << (((uint32_t)IRQn) & 0x1FUL))) != 0UL) ? 1UL : 0UL));
  }
  else
  {
    return(0U);
  }
}
# 807 "./core_cm0plus.h" 3
static inline void __NVIC_SetPendingIRQ(IRQn_Type IRQn)
{
  if ((int32_t)(IRQn) >= 0)
  {
    ((NVIC_Type *) ((0xE000E000UL) + 0x0100UL) )->ISPR[0U] = (uint32_t)(1UL << (((uint32_t)IRQn) & 0x1FUL));
  }
}
# 822 "./core_cm0plus.h" 3
static inline void __NVIC_ClearPendingIRQ(IRQn_Type IRQn)
{
  if ((int32_t)(IRQn) >= 0)
  {
    ((NVIC_Type *) ((0xE000E000UL) + 0x0100UL) )->ICPR[0U] = (uint32_t)(1UL << (((uint32_t)IRQn) & 0x1FUL));
  }
}
# 840 "./core_cm0plus.h" 3
static inline void __NVIC_SetPriority(IRQn_Type IRQn, uint32_t priority)
{
  if ((int32_t)(IRQn) >= 0)
  {
    ((NVIC_Type *) ((0xE000E000UL) + 0x0100UL) )->IP[( (((uint32_t)(int32_t)(IRQn)) >> 2UL) )] = ((uint32_t)(((NVIC_Type *) ((0xE000E000UL) + 0x0100UL) )->IP[( (((uint32_t)(int32_t)(IRQn)) >> 2UL) )] & ~(0xFFUL << ( ((((uint32_t)(int32_t)(IRQn)) ) & 0x03UL) * 8UL))) |
       (((priority << (8U - 2)) & (uint32_t)0xFFUL) << ( ((((uint32_t)(int32_t)(IRQn)) ) & 0x03UL) * 8UL)));
  }
  else
  {
    ((SCB_Type *) ((0xE000E000UL) + 0x0D00UL) )->SHP[( (((((uint32_t)(int32_t)(IRQn)) & 0x0FUL)-8UL) >> 2UL) )] = ((uint32_t)(((SCB_Type *) ((0xE000E000UL) + 0x0D00UL) )->SHP[( (((((uint32_t)(int32_t)(IRQn)) & 0x0FUL)-8UL) >> 2UL) )] & ~(0xFFUL << ( ((((uint32_t)(int32_t)(IRQn)) ) & 0x03UL) * 8UL))) |
       (((priority << (8U - 2)) & (uint32_t)0xFFUL) << ( ((((uint32_t)(int32_t)(IRQn)) ) & 0x03UL) * 8UL)));
  }
}
# 864 "./core_cm0plus.h" 3
static inline uint32_t __NVIC_GetPriority(IRQn_Type IRQn)
{

  if ((int32_t)(IRQn) >= 0)
  {
    return((uint32_t)(((((NVIC_Type *) ((0xE000E000UL) + 0x0100UL) )->IP[ ( (((uint32_t)(int32_t)(IRQn)) >> 2UL) )] >> ( ((((uint32_t)(int32_t)(IRQn)) ) & 0x03UL) * 8UL) ) & (uint32_t)0xFFUL) >> (8U - 2)));
  }
  else
  {
    return((uint32_t)(((((SCB_Type *) ((0xE000E000UL) + 0x0D00UL) )->SHP[( (((((uint32_t)(int32_t)(IRQn)) & 0x0FUL)-8UL) >> 2UL) )] >> ( ((((uint32_t)(int32_t)(IRQn)) ) & 0x03UL) * 8UL) ) & (uint32_t)0xFFUL) >> (8U - 2)));
  }
}
# 888 "./core_cm0plus.h" 3
static inline void __NVIC_SetVector(IRQn_Type IRQn, uint32_t vector)
{

  uint32_t *vectors = (uint32_t *)((SCB_Type *) ((0xE000E000UL) + 0x0D00UL) )->VTOR;



  vectors[(int32_t)IRQn + 16] = vector;
}
# 907 "./core_cm0plus.h" 3
static inline uint32_t __NVIC_GetVector(IRQn_Type IRQn)
{

  uint32_t *vectors = (uint32_t *)((SCB_Type *) ((0xE000E000UL) + 0x0D00UL) )->VTOR;



  return vectors[(int32_t)IRQn + 16];

}






static inline void __NVIC_SystemReset(void)
{
  __DSB();

  ((SCB_Type *) ((0xE000E000UL) + 0x0D00UL) )->AIRCR = ((0x5FAUL << 16U) |
                 (1UL << 2U));
  __DSB();

  for(;;)
  {
    __asm volatile ("nop");
  }
}
# 963 "./core_cm0plus.h" 3
static inline uint32_t SCB_GetFPUType(void)
{
    return 0U;
}
# 994 "./core_cm0plus.h" 3
static inline uint32_t SysTick_Config(uint32_t ticks)
{
  if ((ticks - 1UL) > (0xFFFFFFUL ))
  {
    return (1UL);
  }

  ((SysTick_Type *) ((0xE000E000UL) + 0x0010UL) )->LOAD = (uint32_t)(ticks - 1UL);
  __NVIC_SetPriority (SysTick_IRQn, (1UL << 2) - 1UL);
  ((SysTick_Type *) ((0xE000E000UL) + 0x0010UL) )->VAL = 0UL;
  ((SysTick_Type *) ((0xE000E000UL) + 0x0010UL) )->CTRL = (1UL << 2U) |
                   (1UL << 1U) |
                   (1UL );
  return (0UL);
}
# 141 "./LPC845.h" 2
# 1 "./system_LPC845.h" 1
# 79 "./system_LPC845.h"
extern uint32_t SystemCoreClock;
# 88 "./system_LPC845.h"
void SystemInit (void);
# 97 "./system_LPC845.h"
void SystemCoreClockUpdate (void);
# 109 "./system_LPC845.h"
void SystemInitHook (void);
# 142 "./LPC845.h" 2
# 174 "./LPC845.h"
typedef enum _dma_request_source
{
    kDmaRequestUSART0_RX_DMA = 0U,
    kDmaRequestUSART0_TX_DMA = 1U,
    kDmaRequestUSART1_RX_DMA = 2U,
    kDmaRequestUSART1_TX_DMA = 3U,
    kDmaRequestUSART2_RX_DMA = 4U,
    kDmaRequestUSART2_TX_DMA = 5U,
    kDmaRequestUSART3_RX_DMA = 6U,
    kDmaRequestUSART3_TX_DMA = 7U,
    kDmaRequestUSART4_RX_DMA = 8U,
    kDmaRequestUSART4_TX_DMA = 9U,
    kDmaRequestSPI0_RX_DMA = 10U,
    kDmaRequestSPI0_TX_DMA = 11U,
    kDmaRequestSPI1_RX_DMA = 12U,
    kDmaRequestSPI1_TX_DMA = 13U,
    kDmaRequestI2C0_SLV_DMA = 14U,
    kDmaRequestI2C0_MST_DMA = 15U,
    kDmaRequestI2C1_SLV_DMA = 16U,
    kDmaRequestI2C1_MST_DMA = 17U,
    kDmaRequestI2C2_SLV_DMA = 18U,
    kDmaRequestI2C2_MST_DMA = 19U,
    kDmaRequestI2C3_SLV_DMA = 20U,
    kDmaRequestI2C3_MST_DMA = 21U,
    kDmaRequestDAC0_DMAREQ = 22U,
    kDmaRequestDAC1_DMAREQ = 23U,
    kDmaRequestCAPT_DMA = 24U,
} dma_request_source_t;
# 250 "./LPC845.h"
typedef struct {
  volatile uint32_t CTRL;
  volatile uint32_t LAD;
} ACOMP_Type;
# 383 "./LPC845.h"
typedef struct {
  volatile uint32_t CTRL;
       uint8_t RESERVED_0[4];
  volatile uint32_t SEQ_CTRL[2];
  volatile const uint32_t SEQ_GDAT[2];
       uint8_t RESERVED_1[8];
  volatile const uint32_t DAT[12];
  volatile uint32_t THR0_LOW;
  volatile uint32_t THR1_LOW;
  volatile uint32_t THR0_HIGH;
  volatile uint32_t THR1_HIGH;
  volatile uint32_t CHAN_THRSEL;
  volatile uint32_t INTEN;
  volatile uint32_t FLAGS;
  volatile uint32_t TRM;
} ADC_Type;
# 869 "./LPC845.h"
typedef struct {
  volatile uint32_t CTRL;
  volatile uint32_t STATUS;
  volatile uint32_t POLL_TCNT;
       uint8_t RESERVED_0[4];
  volatile uint32_t INTENSET;
  volatile uint32_t INTENCLR;
  volatile const uint32_t INTSTAT;
       uint8_t RESERVED_1[4];
  volatile const uint32_t TOUCH;
       uint8_t RESERVED_2[4056];
  volatile const uint32_t ID;
} CAPT_Type;
# 1155 "./LPC845.h"
typedef struct {
  volatile uint32_t MODE;
  volatile uint32_t SEED;
  union {
    volatile const uint32_t SUM;
    volatile uint32_t WR_DATA;
  };
} CRC_Type;
# 1244 "./LPC845.h"
typedef struct {
  volatile uint32_t IR;
  volatile uint32_t TCR;
  volatile uint32_t TC;
  volatile uint32_t PR;
  volatile uint32_t PC;
  volatile uint32_t MCR;
  volatile uint32_t MR[4];
  volatile uint32_t CCR;
  volatile const uint32_t CR[4];
  volatile uint32_t EMR;
       uint8_t RESERVED_0[48];
  volatile uint32_t CTCR;
  volatile uint32_t PWMC;
  volatile uint32_t MSR[4];
} CTIMER_Type;
# 1623 "./LPC845.h"
typedef struct {
  volatile uint32_t CR;
  volatile uint32_t CTRL;
  volatile uint32_t CNTVAL;
} DAC_Type;
# 1728 "./LPC845.h"
typedef struct {
  volatile uint32_t CTRL;
  volatile const uint32_t INTSTAT;
  volatile uint32_t SRAMBASE;
       uint8_t RESERVED_0[20];
  struct {
    volatile uint32_t ENABLESET;
         uint8_t RESERVED_0[4];
    volatile uint32_t ENABLECLR;
         uint8_t RESERVED_1[4];
    volatile const uint32_t ACTIVE;
         uint8_t RESERVED_2[4];
    volatile const uint32_t BUSY;
         uint8_t RESERVED_3[4];
    volatile uint32_t ERRINT;
         uint8_t RESERVED_4[4];
    volatile uint32_t INTENSET;
         uint8_t RESERVED_5[4];
    volatile uint32_t INTENCLR;
         uint8_t RESERVED_6[4];
    volatile uint32_t INTA;
         uint8_t RESERVED_7[4];
    volatile uint32_t INTB;
         uint8_t RESERVED_8[4];
    volatile uint32_t SETVALID;
         uint8_t RESERVED_9[4];
    volatile uint32_t SETTRIG;
         uint8_t RESERVED_10[4];
    volatile uint32_t ABORT;
  } COMMON[1];
       uint8_t RESERVED_1[900];
  struct {
    volatile uint32_t CFG;
    volatile const uint32_t CTLSTAT;
    volatile uint32_t XFERCFG;
         uint8_t RESERVED_0[4];
  } CHANNEL[25];
} DMA_Type;
# 2156 "./LPC845.h"
typedef struct {
       uint8_t RESERVED_0[16];
  volatile uint32_t FLASHCFG;
       uint8_t RESERVED_1[12];
  volatile uint32_t FMSSTART;
  volatile uint32_t FMSSTOP;
       uint8_t RESERVED_2[4];
  volatile const uint32_t FMSW0;
       uint8_t RESERVED_3[4016];
  volatile const uint32_t FMSTAT;
       uint8_t RESERVED_4[4];
  volatile uint32_t FMSTATCLR;
} FLASH_CTRL_Type;
# 2263 "./LPC845.h"
typedef struct {
  volatile uint8_t B[2][32];
       uint8_t RESERVED_0[4032];
  volatile uint32_t W[2][32];
       uint8_t RESERVED_1[3840];
  volatile uint32_t DIR[2];
       uint8_t RESERVED_2[120];
  volatile uint32_t MASK[2];
       uint8_t RESERVED_3[120];
  volatile uint32_t PIN[2];
       uint8_t RESERVED_4[120];
  volatile uint32_t MPIN[2];
       uint8_t RESERVED_5[120];
  volatile uint32_t SET[2];
       uint8_t RESERVED_6[120];
  volatile uint32_t CLR[2];
       uint8_t RESERVED_7[120];
  volatile uint32_t NOT[2];
       uint8_t RESERVED_8[120];
  volatile uint32_t DIRSET[2];
       uint8_t RESERVED_9[120];
  volatile uint32_t DIRCLR[2];
       uint8_t RESERVED_10[120];
  volatile uint32_t DIRNOT[2];
} GPIO_Type;
# 2455 "./LPC845.h"
typedef struct {
  volatile uint32_t CFG;
  volatile uint32_t STAT;
  volatile uint32_t INTENSET;
  volatile uint32_t INTENCLR;
  volatile uint32_t TIMEOUT;
  volatile uint32_t CLKDIV;
  volatile const uint32_t INTSTAT;
       uint8_t RESERVED_0[4];
  volatile uint32_t MSTCTL;
  volatile uint32_t MSTTIME;
  volatile uint32_t MSTDAT;
       uint8_t RESERVED_1[20];
  volatile uint32_t SLVCTL;
  volatile uint32_t SLVDAT;
  volatile uint32_t SLVADR[4];
  volatile uint32_t SLVQUAL0;
       uint8_t RESERVED_2[36];
  volatile const uint32_t MONRXDAT;
} I2C_Type;
# 3096 "./LPC845.h"
typedef struct {
  volatile uint32_t DMA_INMUX_INMUX[2];
       uint8_t RESERVED_0[24];
  volatile uint32_t SCT_INMUX[4];
       uint8_t RESERVED_1[16];
  volatile uint32_t DMA_ITRIG_INMUX[25];
} INPUTMUX_Type;
# 3174 "./LPC845.h"
typedef struct {
  volatile uint32_t PIO[56];
} IOCON_Type;
# 3348 "./LPC845.h"
typedef struct {
  struct {
    volatile uint32_t INTVAL;
    volatile const uint32_t TIMER;
    volatile uint32_t CTRL;
    volatile uint32_t STAT;
  } CHANNEL[4];
       uint8_t RESERVED_0[180];
  volatile const uint32_t IDLE_CH;
  volatile uint32_t IRQ_FLAG;
} MRT_Type;
# 3506 "./LPC845.h"
typedef struct {
  volatile uint32_t POSITION;
  volatile uint32_t MASTER;
  volatile uint32_t FLOW;
  volatile const uint32_t BASE;
} MTB_Type;
# 3608 "./LPC845.h"
typedef struct {
  volatile uint32_t ISEL;
  volatile uint32_t IENR;
  volatile uint32_t SIENR;
  volatile uint32_t CIENR;
  volatile uint32_t IENF;
  volatile uint32_t SIENF;
  volatile uint32_t CIENF;
  volatile uint32_t RISE;
  volatile uint32_t FALL;
  volatile uint32_t IST;
  volatile uint32_t PMCTRL;
  volatile uint32_t PMSRC;
  volatile uint32_t PMCFG;
} PINT_Type;
# 4086 "./LPC845.h"
typedef struct {
  volatile uint32_t PCON;
  volatile uint32_t GPREG[4];
  volatile uint32_t DPDCTRL;
} PMU_Type;
# 4251 "./LPC845.h"
typedef struct {
  volatile uint32_t CONFIG;
  volatile uint32_t CTRL;
  volatile uint32_t LIMIT;
  volatile uint32_t HALT;
  volatile uint32_t STOP;
  volatile uint32_t START;
       uint8_t RESERVED_0[40];
  volatile uint32_t COUNT;
  volatile uint32_t STATE;
  volatile const uint32_t INPUT;
  volatile uint32_t REGMODE;
  volatile uint32_t OUTPUT;
  volatile uint32_t OUTPUTDIRCTRL;
  volatile uint32_t RES;
  volatile uint32_t DMA0REQUEST;
  volatile uint32_t DMA1REQUEST;
       uint8_t RESERVED_1[140];
  volatile uint32_t EVEN;
  volatile uint32_t EVFLAG;
  volatile uint32_t CONEN;
  volatile uint32_t CONFLAG;
  union {
    volatile uint32_t SCTCAP[8];
    volatile uint32_t SCTMATCH[8];
  };
       uint8_t RESERVED_2[224];
  union {
    volatile uint32_t SCTCAPCTRL[8];
    volatile uint32_t SCTMATCHREL[8];
  };
       uint8_t RESERVED_3[224];
  struct {
    volatile uint32_t STATE;
    volatile uint32_t CTRL;
  } EVENT[8];
       uint8_t RESERVED_4[448];
  struct {
    volatile uint32_t SET;
    volatile uint32_t CLR;
  } OUT[7];
} SCT_Type;
# 4891 "./LPC845.h"
typedef struct {
  volatile uint32_t CFG;
  volatile uint32_t DLY;
  volatile uint32_t STAT;
  volatile uint32_t INTENSET;
  volatile uint32_t INTENCLR;
  volatile const uint32_t RXDAT;
  volatile uint32_t TXDATCTL;
  volatile uint32_t TXDAT;
  volatile uint32_t TXCTL;
  volatile uint32_t DIV;
  volatile const uint32_t INTSTAT;
} SPI_Type;
# 5331 "./LPC845.h"
typedef struct {
  union {
    struct {
      volatile uint32_t PINASSIGN0;
      volatile uint32_t PINASSIGN1;
      volatile uint32_t PINASSIGN2;
      volatile uint32_t PINASSIGN3;
      volatile uint32_t PINASSIGN4;
      volatile uint32_t PINASSIGN5;
      volatile uint32_t PINASSIGN6;
      volatile uint32_t PINASSIGN7;
      volatile uint32_t PINASSIGN8;
      volatile uint32_t PINASSIGN9;
      volatile uint32_t PINASSIGN10;
      volatile uint32_t PINASSIGN11;
      volatile uint32_t PINASSIGN12;
      volatile uint32_t PINASSIGN13;
      volatile uint32_t PINASSIGN14;
    } PINASSIGN;
    volatile uint32_t PINASSIGN_DATA[15];
  };
       uint8_t RESERVED_0[388];
  volatile uint32_t PINENABLE0;
  volatile uint32_t PINENABLE1;
} SWM_Type;
# 5937 "./LPC845.h"
typedef struct {
  volatile uint32_t SYSMEMREMAP;
       uint8_t RESERVED_0[4];
  volatile uint32_t SYSPLLCTRL;
  volatile const uint32_t SYSPLLSTAT;
       uint8_t RESERVED_1[16];
  volatile uint32_t SYSOSCCTRL;
  volatile uint32_t WDTOSCCTRL;
  volatile uint32_t FROOSCCTRL;
       uint8_t RESERVED_2[4];
  volatile uint32_t FRODIRECTCLKUEN;
       uint8_t RESERVED_3[4];
  volatile uint32_t SYSRSTSTAT;
       uint8_t RESERVED_4[4];
  volatile uint32_t SYSPLLCLKSEL;
  volatile uint32_t SYSPLLCLKUEN;
  volatile uint32_t MAINCLKPLLSEL;
  volatile uint32_t MAINCLKPLLUEN;
  volatile uint32_t MAINCLKSEL;
  volatile uint32_t MAINCLKUEN;
  volatile uint32_t SYSAHBCLKDIV;
       uint8_t RESERVED_5[4];
  volatile uint32_t CAPTCLKSEL;
  volatile uint32_t ADCCLKSEL;
  volatile uint32_t ADCCLKDIV;
  volatile uint32_t SCTCLKSEL;
  volatile uint32_t SCTCLKDIV;
  volatile uint32_t EXTCLKSEL;
       uint8_t RESERVED_6[8];
  volatile uint32_t SYSAHBCLKCTRL0;
  volatile uint32_t SYSAHBCLKCTRL1;
  volatile uint32_t PRESETCTRL0;
  volatile uint32_t PRESETCTRL1;
  volatile uint32_t FCLKSEL[11];
       uint8_t RESERVED_7[20];
  struct {
    volatile uint32_t FRGDIV;
    volatile uint32_t FRGMULT;
    volatile uint32_t FRGCLKSEL;
         uint8_t RESERVED_0[4];
  } FRG[2];
  volatile uint32_t CLKOUTSEL;
  volatile uint32_t CLKOUTDIV;
       uint8_t RESERVED_8[4];
  volatile uint32_t EXTTRACECMD;
  volatile const uint32_t PIOPORCAP[2];
       uint8_t RESERVED_9[44];
  volatile uint32_t IOCONCLKDIV6;
  volatile uint32_t IOCONCLKDIV5;
  volatile uint32_t IOCONCLKDIV4;
  volatile uint32_t IOCONCLKDIV3;
  volatile uint32_t IOCONCLKDIV2;
  volatile uint32_t IOCONCLKDIV1;
  volatile uint32_t IOCONCLKDIV0;
  volatile uint32_t BODCTRL;
  volatile uint32_t SYSTCKCAL;
       uint8_t RESERVED_10[24];
  volatile uint32_t IRQLATENCY;
  volatile uint32_t NMISRC;
  volatile uint32_t PINTSEL[8];
       uint8_t RESERVED_11[108];
  volatile uint32_t STARTERP0;
       uint8_t RESERVED_12[12];
  volatile uint32_t STARTERP1;
       uint8_t RESERVED_13[24];
  volatile uint32_t PDSLEEPCFG;
  volatile uint32_t PDAWAKECFG;
  volatile uint32_t PDRUNCFG;
       uint8_t RESERVED_14[444];
  volatile const uint32_t DEVICE_ID;
} SYSCON_Type;
# 7349 "./LPC845.h"
typedef struct {
  volatile uint32_t CFG;
  volatile uint32_t CTL;
  volatile uint32_t STAT;
  volatile uint32_t INTENSET;
  volatile uint32_t INTENCLR;
  volatile const uint32_t RXDAT;
  volatile const uint32_t RXDATSTAT;
  volatile uint32_t TXDAT;
  volatile uint32_t BRG;
  volatile const uint32_t INTSTAT;
  volatile uint32_t OSR;
  volatile uint32_t ADDR;
} USART_Type;
# 7830 "./LPC845.h"
typedef struct {
  volatile uint32_t CTRL;
       uint8_t RESERVED_0[8];
  volatile uint32_t COUNT;
} WKT_Type;
# 7926 "./LPC845.h"
typedef struct {
  volatile uint32_t MOD;
  volatile uint32_t TC;
  volatile uint32_t FEED;
  volatile const uint32_t TV;
       uint8_t RESERVED_0[4];
  volatile uint32_t WARNINT;
  volatile uint32_t WINDOW;
} WWDT_Type;
# 24 "./fsl_device_registers.h" 2

# 1 "./LPC845_features.h" 1
# 26 "./fsl_device_registers.h" 2
# 23 "./fsl_common.h" 2
# 58 "./fsl_common.h"
enum _status_groups
{
    kStatusGroup_Generic = 0,
    kStatusGroup_FLASH = 1,
    kStatusGroup_LPSPI = 4,
    kStatusGroup_FLEXIO_SPI = 5,
    kStatusGroup_DSPI = 6,
    kStatusGroup_FLEXIO_UART = 7,
    kStatusGroup_FLEXIO_I2C = 8,
    kStatusGroup_LPI2C = 9,
    kStatusGroup_UART = 10,
    kStatusGroup_I2C = 11,
    kStatusGroup_LPSCI = 12,
    kStatusGroup_LPUART = 13,
    kStatusGroup_SPI = 14,
    kStatusGroup_XRDC = 15,
    kStatusGroup_SEMA42 = 16,
    kStatusGroup_SDHC = 17,
    kStatusGroup_SDMMC = 18,
    kStatusGroup_SAI = 19,
    kStatusGroup_MCG = 20,
    kStatusGroup_SCG = 21,
    kStatusGroup_SDSPI = 22,
    kStatusGroup_FLEXIO_I2S = 23,
    kStatusGroup_FLEXIO_MCULCD = 24,
    kStatusGroup_FLASHIAP = 25,
    kStatusGroup_FLEXCOMM_I2C = 26,
    kStatusGroup_I2S = 27,
    kStatusGroup_IUART = 28,
    kStatusGroup_CSI = 29,
    kStatusGroup_MIPI_DSI = 30,
    kStatusGroup_SDRAMC = 35,
    kStatusGroup_POWER = 39,
    kStatusGroup_ENET = 40,
    kStatusGroup_PHY = 41,
    kStatusGroup_TRGMUX = 42,
    kStatusGroup_SMARTCARD = 43,
    kStatusGroup_LMEM = 44,
    kStatusGroup_QSPI = 45,
    kStatusGroup_DMA = 50,
    kStatusGroup_EDMA = 51,
    kStatusGroup_DMAMGR = 52,
    kStatusGroup_FLEXCAN = 53,
    kStatusGroup_LTC = 54,
    kStatusGroup_FLEXIO_CAMERA = 55,
    kStatusGroup_LPC_SPI = 56,
    kStatusGroup_LPC_USART = 57,
    kStatusGroup_DMIC = 58,
    kStatusGroup_SDIF = 59,
    kStatusGroup_SPIFI = 60,
    kStatusGroup_OTP = 61,
    kStatusGroup_MCAN = 62,
    kStatusGroup_CAAM = 63,
    kStatusGroup_ECSPI = 64,
    kStatusGroup_USDHC = 65,
    kStatusGroup_LPC_I2C = 66,
    kStatusGroup_DCP = 67,
    kStatusGroup_MSCAN = 68,
    kStatusGroup_ESAI = 69,
    kStatusGroup_FLEXSPI = 70,
    kStatusGroup_MMDC = 71,
    kStatusGroup_PDM = 72,
    kStatusGroup_SDMA = 73,
    kStatusGroup_ICS = 74,
    kStatusGroup_SPDIF = 75,
    kStatusGroup_LPC_MINISPI = 76,
    kStatusGroup_HASHCRYPT = 77,
    kStatusGroup_LPC_SPI_SSP = 78,
    kStatusGroup_I3C = 79,
    kStatusGroup_LPC_I2C_1 = 97,
    kStatusGroup_NOTIFIER = 98,
    kStatusGroup_DebugConsole = 99,
    kStatusGroup_SEMC = 100,
    kStatusGroup_ApplicationRangeStart = 101,
    kStatusGroup_IAP = 102,

    kStatusGroup_HAL_GPIO = 121,
    kStatusGroup_HAL_UART = 122,
    kStatusGroup_HAL_TIMER = 123,
    kStatusGroup_HAL_SPI = 124,
    kStatusGroup_HAL_I2C = 125,
    kStatusGroup_HAL_FLASH = 126,
    kStatusGroup_HAL_PWM = 127,
    kStatusGroup_HAL_RNG = 128,
    kStatusGroup_TIMERMANAGER = 135,
    kStatusGroup_SERIALMANAGER = 136,
    kStatusGroup_LED = 137,
    kStatusGroup_BUTTON = 138,
    kStatusGroup_EXTERN_EEPROM = 139,
    kStatusGroup_SHELL = 140,
    kStatusGroup_MEM_MANAGER = 141,
    kStatusGroup_LIST = 142,
    kStatusGroup_OSA = 143,
    kStatusGroup_COMMON_TASK = 144,
    kStatusGroup_MSG = 145,
    kStatusGroup_SDK_OCOTP = 146,
    kStatusGroup_SDK_FLEXSPINOR = 147,
    kStatusGroup_CODEC = 148,
};


enum _generic_status
{
    kStatus_Success = ((((kStatusGroup_Generic)*100) + (0))),
    kStatus_Fail = ((((kStatusGroup_Generic)*100) + (1))),
    kStatus_ReadOnly = ((((kStatusGroup_Generic)*100) + (2))),
    kStatus_OutOfRange = ((((kStatusGroup_Generic)*100) + (3))),
    kStatus_InvalidArgument = ((((kStatusGroup_Generic)*100) + (4))),
    kStatus_Timeout = ((((kStatusGroup_Generic)*100) + (5))),
    kStatus_NoTransferInProgress = ((((kStatusGroup_Generic)*100) + (6))),
};


typedef int32_t status_t;
# 384 "./fsl_common.h"
# 1 "./fsl_clock.h" 1
# 11 "./fsl_clock.h"
# 1 "./fsl_common.h" 1
# 12 "./fsl_clock.h" 2
# 38 "./fsl_clock.h"
extern volatile uint32_t g_Wdt_Osc_Freq;
# 48 "./fsl_clock.h"
extern volatile uint32_t g_Ext_Clk_Freq;
# 188 "./fsl_clock.h"
typedef enum _clock_ip_name
{
    kCLOCK_IpInvalid = 0U,
    kCLOCK_Rom = (((((0U))&0xFFU) << 8U) | ((1U)&0xFFU)),
    kCLOCK_Ram0_1 = (((((0U))&0xFFU) << 8U) | ((2U)&0xFFU)),
    kCLOCK_I2c0 = (((((0U))&0xFFU) << 8U) | ((5U)&0xFFU)),
    kCLOCK_Gpio0 = (((((0U))&0xFFU) << 8U) | ((6U)&0xFFU)),
    kCLOCK_Swm = (((((0U))&0xFFU) << 8U) | ((7U)&0xFFU)),
    kCLOCK_Sct = (((((0U))&0xFFU) << 8U) | ((8U)&0xFFU)),
    kCLOCK_Wkt = (((((0U))&0xFFU) << 8U) | ((9U)&0xFFU)),
    kCLOCK_Mrt = (((((0U))&0xFFU) << 8U) | ((10U)&0xFFU)),
    kCLOCK_Spi0 = (((((0U))&0xFFU) << 8U) | ((11U)&0xFFU)),
    kCLOCK_Spi1 = (((((0U))&0xFFU) << 8U) | ((12U)&0xFFU)),
    kCLOCK_Crc = (((((0U))&0xFFU) << 8U) | ((13U)&0xFFU)),
    kCLOCK_Uart0 = (((((0U))&0xFFU) << 8U) | ((14U)&0xFFU)),
    kCLOCK_Uart1 = (((((0U))&0xFFU) << 8U) | ((15U)&0xFFU)),
    kCLOCK_Uart2 = (((((0U))&0xFFU) << 8U) | ((16U)&0xFFU)),
    kCLOCK_Wwdt = (((((0U))&0xFFU) << 8U) | ((17U)&0xFFU)),
    kCLOCK_Iocon = (((((0U))&0xFFU) << 8U) | ((18U)&0xFFU)),
    kCLOCK_Acmp = (((((0U))&0xFFU) << 8U) | ((19U)&0xFFU)),
    kCLOCK_Gpio1 = (((((0U))&0xFFU) << 8U) | ((20U)&0xFFU)),
    kCLOCK_I2c1 = (((((0U))&0xFFU) << 8U) | ((21U)&0xFFU)),
    kCLOCK_I2c2 = (((((0U))&0xFFU) << 8U) | ((22U)&0xFFU)),
    kCLOCK_I2c3 = (((((0U))&0xFFU) << 8U) | ((23U)&0xFFU)),
    kCLOCK_Adc = (((((0U))&0xFFU) << 8U) | ((24U)&0xFFU)),
    kCLOCK_Ctimer0 = (((((0U))&0xFFU) << 8U) | ((25U)&0xFFU)),
    kCLOCK_Mtb = (((((0U))&0xFFU) << 8U) | ((26U)&0xFFU)),
    kCLOCK_Dac0 = (((((0U))&0xFFU) << 8U) | ((27U)&0xFFU)),
    kCLOCK_GpioInt = (((((0U))&0xFFU) << 8U) | ((28U)&0xFFU)),
    kCLOCK_Dma = (((((0U))&0xFFU) << 8U) | ((29U)&0xFFU)),
    kCLOCK_Uart3 = (((((0U))&0xFFU) << 8U) | ((30U)&0xFFU)),
    kCLOCK_Uart4 = (((((0U))&0xFFU) << 8U) | ((31U)&0xFFU)),
    kCLOCK_Capt = (((((4U))&0xFFU) << 8U) | ((0U)&0xFFU)),
    kCLOCK_Dac1 = (((((4U))&0xFFU) << 8U) | ((1U)&0xFFU)),
} clock_ip_name_t;


typedef enum _clock_name
{
    kCLOCK_CoreSysClk,
    kCLOCK_MainClk,

    kCLOCK_Fro,
    kCLOCK_FroDiv,
    kCLOCK_ExtClk,
    kCLOCK_PllOut,
    kCLOCK_WdtOsc,
    kCLOCK_Frg0,
    kCLOCK_Frg1,
} clock_name_t;







typedef enum _clock_select
{
    kCAPT_Clk_From_Fro = (((((uint32_t)(&((SYSCON_Type *)0U)->CAPTCLKSEL)) & 0xFFU) << 8U) | ((0U)&0xFFU)),
    kCAPT_Clk_From_MainClk = (((((uint32_t)(&((SYSCON_Type *)0U)->CAPTCLKSEL)) & 0xFFU) << 8U) | ((1U)&0xFFU)),
    kCAPT_Clk_From_SysPll = (((((uint32_t)(&((SYSCON_Type *)0U)->CAPTCLKSEL)) & 0xFFU) << 8U) | ((2U)&0xFFU)),
    kCAPT_Clk_From_Fro_Div = (((((uint32_t)(&((SYSCON_Type *)0U)->CAPTCLKSEL)) & 0xFFU) << 8U) | ((3U)&0xFFU)),
    kCAPT_Clk_From_WdtOsc = (((((uint32_t)(&((SYSCON_Type *)0U)->CAPTCLKSEL)) & 0xFFU) << 8U) | ((4U)&0xFFU)),

    kADC_Clk_From_Fro = (((((uint32_t)(&((SYSCON_Type *)0U)->ADCCLKSEL)) & 0xFFU) << 8U) | ((0U)&0xFFU)),
    kADC_Clk_From_SysPll = (((((uint32_t)(&((SYSCON_Type *)0U)->ADCCLKSEL)) & 0xFFU) << 8U) | ((1U)&0xFFU)),

    kSCT_Clk_From_Fro = (((((uint32_t)(&((SYSCON_Type *)0U)->SCTCLKSEL)) & 0xFFU) << 8U) | ((0U)&0xFFU)),
    kSCT_Clk_From_MainClk = (((((uint32_t)(&((SYSCON_Type *)0U)->SCTCLKSEL)) & 0xFFU) << 8U) | ((1U)&0xFFU)),
    kSCT_Clk_From_SysPll = (((((uint32_t)(&((SYSCON_Type *)0U)->SCTCLKSEL)) & 0xFFU) << 8U) | ((2U)&0xFFU)),

    kEXT_Clk_From_SysOsc = (((((uint32_t)(&((SYSCON_Type *)0U)->EXTCLKSEL)) & 0xFFU) << 8U) | ((0U)&0xFFU)),
    kEXT_Clk_From_ClkIn = (((((uint32_t)(&((SYSCON_Type *)0U)->EXTCLKSEL)) & 0xFFU) << 8U) | ((1U)&0xFFU)),

    kUART0_Clk_From_Fro = (((((uint32_t)(&((SYSCON_Type *)0U)->FCLKSEL[0U])) & 0xFFU) << 8U) | ((0U)&0xFFU)),
    kUART0_Clk_From_MainClk = (((((uint32_t)(&((SYSCON_Type *)0U)->FCLKSEL[0U])) & 0xFFU) << 8U) | ((1U)&0xFFU)),
    kUART0_Clk_From_Frg0Clk = (((((uint32_t)(&((SYSCON_Type *)0U)->FCLKSEL[0U])) & 0xFFU) << 8U) | ((2U)&0xFFU)),
    kUART0_Clk_From_Frg1Clk = (((((uint32_t)(&((SYSCON_Type *)0U)->FCLKSEL[0U])) & 0xFFU) << 8U) | ((3U)&0xFFU)),
    kUART0_Clk_From_Fro_Div = (((((uint32_t)(&((SYSCON_Type *)0U)->FCLKSEL[0U])) & 0xFFU) << 8U) | ((4U)&0xFFU)),

    kUART1_Clk_From_Fro = (((((uint32_t)(&((SYSCON_Type *)0U)->FCLKSEL[1U])) & 0xFFU) << 8U) | ((0U)&0xFFU)),
    kUART1_Clk_From_MainClk = (((((uint32_t)(&((SYSCON_Type *)0U)->FCLKSEL[1U])) & 0xFFU) << 8U) | ((1U)&0xFFU)),
    kUART1_Clk_From_Frg0Clk = (((((uint32_t)(&((SYSCON_Type *)0U)->FCLKSEL[1U])) & 0xFFU) << 8U) | ((2U)&0xFFU)),
    kUART1_Clk_From_Frg1Clk = (((((uint32_t)(&((SYSCON_Type *)0U)->FCLKSEL[1U])) & 0xFFU) << 8U) | ((3U)&0xFFU)),
    kUART1_Clk_From_Fro_Div = (((((uint32_t)(&((SYSCON_Type *)0U)->FCLKSEL[1U])) & 0xFFU) << 8U) | ((4U)&0xFFU)),

    kUART2_Clk_From_Fro = (((((uint32_t)(&((SYSCON_Type *)0U)->FCLKSEL[2U])) & 0xFFU) << 8U) | ((0U)&0xFFU)),
    kUART2_Clk_From_MainClk = (((((uint32_t)(&((SYSCON_Type *)0U)->FCLKSEL[2U])) & 0xFFU) << 8U) | ((1U)&0xFFU)),
    kUART2_Clk_From_Frg0Clk = (((((uint32_t)(&((SYSCON_Type *)0U)->FCLKSEL[2U])) & 0xFFU) << 8U) | ((2U)&0xFFU)),
    kUART2_Clk_From_Frg1Clk = (((((uint32_t)(&((SYSCON_Type *)0U)->FCLKSEL[2U])) & 0xFFU) << 8U) | ((3U)&0xFFU)),
    kUART2_Clk_From_Fro_Div = (((((uint32_t)(&((SYSCON_Type *)0U)->FCLKSEL[2U])) & 0xFFU) << 8U) | ((4U)&0xFFU)),

    kUART3_Clk_From_Fro = (((((uint32_t)(&((SYSCON_Type *)0U)->FCLKSEL[3U])) & 0xFFU) << 8U) | ((0U)&0xFFU)),
    kUART3_Clk_From_MainClk = (((((uint32_t)(&((SYSCON_Type *)0U)->FCLKSEL[3U])) & 0xFFU) << 8U) | ((1U)&0xFFU)),
    kUART3_Clk_From_Frg0Clk = (((((uint32_t)(&((SYSCON_Type *)0U)->FCLKSEL[3U])) & 0xFFU) << 8U) | ((2U)&0xFFU)),
    kUART3_Clk_From_Frg1Clk = (((((uint32_t)(&((SYSCON_Type *)0U)->FCLKSEL[3U])) & 0xFFU) << 8U) | ((3U)&0xFFU)),
    kUART3_Clk_From_Fro_Div = (((((uint32_t)(&((SYSCON_Type *)0U)->FCLKSEL[3U])) & 0xFFU) << 8U) | ((4U)&0xFFU)),

    kUART4_Clk_From_Fro = (((((uint32_t)(&((SYSCON_Type *)0U)->FCLKSEL[4U])) & 0xFFU) << 8U) | ((0U)&0xFFU)),
    kUART4_Clk_From_MainClk = (((((uint32_t)(&((SYSCON_Type *)0U)->FCLKSEL[4U])) & 0xFFU) << 8U) | ((1U)&0xFFU)),
    kUART4_Clk_From_Frg0Clk = (((((uint32_t)(&((SYSCON_Type *)0U)->FCLKSEL[4U])) & 0xFFU) << 8U) | ((2U)&0xFFU)),
    kUART4_Clk_From_Frg1Clk = (((((uint32_t)(&((SYSCON_Type *)0U)->FCLKSEL[4U])) & 0xFFU) << 8U) | ((3U)&0xFFU)),
    kUART4_Clk_From_Fro_Div = (((((uint32_t)(&((SYSCON_Type *)0U)->FCLKSEL[4U])) & 0xFFU) << 8U) | ((4U)&0xFFU)),

    kI2C0_Clk_From_Fro = (((((uint32_t)(&((SYSCON_Type *)0U)->FCLKSEL[5U])) & 0xFFU) << 8U) | ((0U)&0xFFU)),
    kI2C0_Clk_From_MainClk = (((((uint32_t)(&((SYSCON_Type *)0U)->FCLKSEL[5U])) & 0xFFU) << 8U) | ((1U)&0xFFU)),
    kI2C0_Clk_From_Frg0Clk = (((((uint32_t)(&((SYSCON_Type *)0U)->FCLKSEL[5U])) & 0xFFU) << 8U) | ((2U)&0xFFU)),
    kI2C0_Clk_From_Frg1Clk = (((((uint32_t)(&((SYSCON_Type *)0U)->FCLKSEL[5U])) & 0xFFU) << 8U) | ((3U)&0xFFU)),
    kI2C0_Clk_From_Fro_Div = (((((uint32_t)(&((SYSCON_Type *)0U)->FCLKSEL[5U])) & 0xFFU) << 8U) | ((4U)&0xFFU)),

    kI2C1_Clk_From_Fro = (((((uint32_t)(&((SYSCON_Type *)0U)->FCLKSEL[6U])) & 0xFFU) << 8U) | ((0U)&0xFFU)),
    kI2C1_Clk_From_MainClk = (((((uint32_t)(&((SYSCON_Type *)0U)->FCLKSEL[6U])) & 0xFFU) << 8U) | ((1U)&0xFFU)),
    kI2C1_Clk_From_Frg0Clk = (((((uint32_t)(&((SYSCON_Type *)0U)->FCLKSEL[6U])) & 0xFFU) << 8U) | ((2U)&0xFFU)),
    kI2C1_Clk_From_Frg1Clk = (((((uint32_t)(&((SYSCON_Type *)0U)->FCLKSEL[6U])) & 0xFFU) << 8U) | ((3U)&0xFFU)),
    kI2C1_Clk_From_Fro_Div = (((((uint32_t)(&((SYSCON_Type *)0U)->FCLKSEL[6U])) & 0xFFU) << 8U) | ((4U)&0xFFU)),

    kI2C2_Clk_From_Fro = (((((uint32_t)(&((SYSCON_Type *)0U)->FCLKSEL[7U])) & 0xFFU) << 8U) | ((0U)&0xFFU)),
    kI2C2_Clk_From_MainClk = (((((uint32_t)(&((SYSCON_Type *)0U)->FCLKSEL[7U])) & 0xFFU) << 8U) | ((1U)&0xFFU)),
    kI2C2_Clk_From_Frg0Clk = (((((uint32_t)(&((SYSCON_Type *)0U)->FCLKSEL[7U])) & 0xFFU) << 8U) | ((2U)&0xFFU)),
    kI2C2_Clk_From_Frg1Clk = (((((uint32_t)(&((SYSCON_Type *)0U)->FCLKSEL[7U])) & 0xFFU) << 8U) | ((3U)&0xFFU)),
    kI2C2_Clk_From_Fro_Div = (((((uint32_t)(&((SYSCON_Type *)0U)->FCLKSEL[7U])) & 0xFFU) << 8U) | ((4U)&0xFFU)),

    kI2C3_Clk_From_Fro = (((((uint32_t)(&((SYSCON_Type *)0U)->FCLKSEL[8U])) & 0xFFU) << 8U) | ((0U)&0xFFU)),
    kI2C3_Clk_From_MainClk = (((((uint32_t)(&((SYSCON_Type *)0U)->FCLKSEL[8U])) & 0xFFU) << 8U) | ((1U)&0xFFU)),
    kI2C3_Clk_From_Frg0Clk = (((((uint32_t)(&((SYSCON_Type *)0U)->FCLKSEL[8U])) & 0xFFU) << 8U) | ((2U)&0xFFU)),
    kI2C3_Clk_From_Frg1Clk = (((((uint32_t)(&((SYSCON_Type *)0U)->FCLKSEL[8U])) & 0xFFU) << 8U) | ((3U)&0xFFU)),
    kI2C3_Clk_From_Fro_Div = (((((uint32_t)(&((SYSCON_Type *)0U)->FCLKSEL[8U])) & 0xFFU) << 8U) | ((4U)&0xFFU)),

    kSPI0_Clk_From_Fro = (((((uint32_t)(&((SYSCON_Type *)0U)->FCLKSEL[9U])) & 0xFFU) << 8U) | ((0U)&0xFFU)),
    kSPI0_Clk_From_MainClk = (((((uint32_t)(&((SYSCON_Type *)0U)->FCLKSEL[9U])) & 0xFFU) << 8U) | ((1U)&0xFFU)),
    kSPI0_Clk_From_Frg0Clk = (((((uint32_t)(&((SYSCON_Type *)0U)->FCLKSEL[9U])) & 0xFFU) << 8U) | ((2U)&0xFFU)),
    kSPI0_Clk_From_Frg1Clk = (((((uint32_t)(&((SYSCON_Type *)0U)->FCLKSEL[9U])) & 0xFFU) << 8U) | ((3U)&0xFFU)),
    kSPI0_Clk_From_Fro_Div = (((((uint32_t)(&((SYSCON_Type *)0U)->FCLKSEL[9U])) & 0xFFU) << 8U) | ((4U)&0xFFU)),

    kSPI1_Clk_From_Fro = (((((uint32_t)(&((SYSCON_Type *)0U)->FCLKSEL[10U])) & 0xFFU) << 8U) | ((0U)&0xFFU)),
    kSPI1_Clk_From_MainClk = (((((uint32_t)(&((SYSCON_Type *)0U)->FCLKSEL[10U])) & 0xFFU) << 8U) | ((1U)&0xFFU)),
    kSPI1_Clk_From_Frg0Clk = (((((uint32_t)(&((SYSCON_Type *)0U)->FCLKSEL[10U])) & 0xFFU) << 8U) | ((2U)&0xFFU)),
    kSPI1_Clk_From_Frg1Clk = (((((uint32_t)(&((SYSCON_Type *)0U)->FCLKSEL[10U])) & 0xFFU) << 8U) | ((3U)&0xFFU)),
    kSPI1_Clk_From_Fro_Div = (((((uint32_t)(&((SYSCON_Type *)0U)->FCLKSEL[10U])) & 0xFFU) << 8U) | ((4U)&0xFFU)),

    kFRG0_Clk_From_Fro = (((((uint32_t)(&((SYSCON_Type *)0U)->FRG[0U].FRGCLKSEL)) & 0xFFU) << 8U) | ((0U)&0xFFU)),
    kFRG0_Clk_From_MainClk = (((((uint32_t)(&((SYSCON_Type *)0U)->FRG[0U].FRGCLKSEL)) & 0xFFU) << 8U) | ((1U)&0xFFU)),
    kFRG0_Clk_From_SysPll = (((((uint32_t)(&((SYSCON_Type *)0U)->FRG[0U].FRGCLKSEL)) & 0xFFU) << 8U) | ((2U)&0xFFU)),

    kFRG1_Clk_From_Fro = (((((uint32_t)(&((SYSCON_Type *)0U)->FRG[1U].FRGCLKSEL)) & 0xFFU) << 8U) | ((0U)&0xFFU)),
    kFRG1_Clk_From_MainClk = (((((uint32_t)(&((SYSCON_Type *)0U)->FRG[1U].FRGCLKSEL)) & 0xFFU) << 8U) | ((1U)&0xFFU)),
    kFRG1_Clk_From_SysPll = (((((uint32_t)(&((SYSCON_Type *)0U)->FRG[1U].FRGCLKSEL)) & 0xFFU) << 8U) | ((2U)&0xFFU)),

    kCLKOUT_From_Fro = (((((uint32_t)(&((SYSCON_Type *)0U)->CLKOUTSEL)) & 0xFFU) << 8U) | ((0U)&0xFFU)),
    kCLKOUT_From_MainClk = (((((uint32_t)(&((SYSCON_Type *)0U)->CLKOUTSEL)) & 0xFFU) << 8U) | ((1U)&0xFFU)),
    kCLKOUT_From_SysPll = (((((uint32_t)(&((SYSCON_Type *)0U)->CLKOUTSEL)) & 0xFFU) << 8U) | ((2U)&0xFFU)),
    kCLKOUT_From_ExtClk = (((((uint32_t)(&((SYSCON_Type *)0U)->CLKOUTSEL)) & 0xFFU) << 8U) | ((3U)&0xFFU)),
    kCLKOUT_From_WdtOsc = (((((uint32_t)(&((SYSCON_Type *)0U)->CLKOUTSEL)) & 0xFFU) << 8U) | ((4U)&0xFFU)),
} clock_select_t;



typedef enum _clock_divider
{
    kCLOCK_DivAdcClk = (((uint32_t)(&((SYSCON_Type *)0U)->ADCCLKDIV)) & 0xFFFU),
    kCLOCK_DivSctClk = (((uint32_t)(&((SYSCON_Type *)0U)->SCTCLKDIV)) & 0xFFFU),
    kCLOCK_DivClkOut = (((uint32_t)(&((SYSCON_Type *)0U)->CLKOUTDIV)) & 0xFFFU),

    kCLOCK_IOCONCLKDiv6 = (((uint32_t)(&((SYSCON_Type *)0U)->IOCONCLKDIV6)) & 0xFFFU),
    kCLOCK_IOCONCLKDiv5 = (((uint32_t)(&((SYSCON_Type *)0U)->IOCONCLKDIV5)) & 0xFFFU),
    kCLOCK_IOCONCLKDiv4 = (((uint32_t)(&((SYSCON_Type *)0U)->IOCONCLKDIV4)) & 0xFFFU),
    kCLOCK_IOCONCLKDiv3 = (((uint32_t)(&((SYSCON_Type *)0U)->IOCONCLKDIV3)) & 0xFFFU),
    kCLOCK_IOCONCLKDiv2 = (((uint32_t)(&((SYSCON_Type *)0U)->IOCONCLKDIV2)) & 0xFFFU),
    kCLOCK_IOCONCLKDiv1 = (((uint32_t)(&((SYSCON_Type *)0U)->IOCONCLKDIV1)) & 0xFFFU),
    kCLOCK_IOCONCLKDiv0 = (((uint32_t)(&((SYSCON_Type *)0U)->IOCONCLKDIV0)) & 0xFFFU),
} clock_divider_t;


typedef enum _clock_wdt_analog_freq
{
    kCLOCK_WdtAnaFreq0HZ = (((0U)&0xFFFFFFU) | (((0U)&0xFFU) << 24U)),
    kCLOCK_WdtAnaFreq600KHZ = (((600000U)&0xFFFFFFU) | (((1U)&0xFFU) << 24U)),
    kCLOCK_WdtAnaFreq1050KHZ = (((1050000U)&0xFFFFFFU) | (((2u)&0xFFU) << 24U)),
    kCLOCK_WdtAnaFreq1400KHZ = (((1400000U)&0xFFFFFFU) | (((3U)&0xFFU) << 24U)),
    kCLOCK_WdtAnaFreq1750KHZ = (((1750000U)&0xFFFFFFU) | (((4U)&0xFFU) << 24U)),
    kCLOCK_WdtAnaFreq2100KHZ = (((2100000U)&0xFFFFFFU) | (((5U)&0xFFU) << 24U)),
    kCLOCK_WdtAnaFreq2400KHZ = (((2400000U)&0xFFFFFFU) | (((6U)&0xFFU) << 24U)),
    kCLOCK_WdtAnaFreq2700KHZ = (((2700000U)&0xFFFFFFU) | (((7U)&0xFFU) << 24U)),
    kCLOCK_WdtAnaFreq3000KHZ = (((3000000U)&0xFFFFFFU) | (((8U)&0xFFU) << 24U)),
    kCLOCK_WdtAnaFreq3250KHZ = (((3250000U)&0xFFFFFFU) | (((9U)&0xFFU) << 24U)),
    kCLOCK_WdtAnaFreq3500KHZ = (((3500000U)&0xFFFFFFU) | (((10U)&0xFFU) << 24U)),
    kCLOCK_WdtAnaFreq3750KHZ = (((3750000U)&0xFFFFFFU) | (((11U)&0xFFU) << 24U)),
    kCLOCK_WdtAnaFreq4000KHZ = (((4000000U)&0xFFFFFFU) | (((12U)&0xFFU) << 24U)),
    kCLOCK_WdtAnaFreq4200KHZ = (((4200000U)&0xFFFFFFU) | (((13U)&0xFFU) << 24U)),
    kCLOCK_WdtAnaFreq4400KHZ = (((4400000U)&0xFFFFFFU) | (((14U)&0xFFU) << 24U)),
    kCLOCK_WdtAnaFreq4600KHZ = (((4600000U)&0xFFFFFFU) | (((15U)&0xFFU) << 24U)),
} clock_wdt_analog_freq_t;


typedef enum _clock_fro_src
{
    kCLOCK_FroSrcLpwrBootValue = 0U,
    kCLOCK_FroSrcFroOsc = 1U << (17U),
} clock_fro_src_t;


typedef enum _clock_fro_osc_freq
{
    kCLOCK_FroOscOut18M = 18000U,
    kCLOCK_FroOscOut24M = 24000U,
    kCLOCK_FroOscOut30M = 30000U,
} clock_fro_osc_freq_t;


typedef enum _clock_sys_pll_src
{
    kCLOCK_SysPllSrcFRO = 0U,
    kCLOCK_SysPllSrcExtClk = 1U,
    kCLOCK_SysPllSrcWdtOsc = 2U,
    kCLOCK_SysPllSrcFroDiv = 3U,
} clock_sys_pll_src;


typedef enum _clock_main_clk_src
{
    kCLOCK_MainClkSrcFro = ((0U) << 8U | (0U)),
    kCLOCK_MainClkSrcExtClk = ((1U) << 8U | (0U)),
    kCLOCK_MainClkSrcWdtOsc = ((2U) << 8U | (0U)),
    kCLOCK_MainClkSrcFroDiv = ((3U) << 8U | (0U)),
    kCLOCK_MainClkSrcSysPll = ((0U) << 8U | (1U)),
} clock_main_clk_src_t;


typedef struct _clock_sys_pll
{
    uint32_t targetFreq;
    clock_sys_pll_src src;
} clock_sys_pll_t;
# 441 "./fsl_clock.h"
static inline void CLOCK_EnableClock(clock_ip_name_t clk)
{
    *(volatile uint32_t *)(((uint32_t)(&((SYSCON_Type *)(0x40048000u))->SYSAHBCLKCTRL0)) + (((clk) >> 8U) & 0xFFU)) |=
        1U << ((uint32_t)(clk)&0xFFU);
}






static inline void CLOCK_DisableClock(clock_ip_name_t clk)
{
    *(volatile uint32_t *)(((uint32_t)(&((SYSCON_Type *)(0x40048000u))->SYSAHBCLKCTRL0)) + (((clk) >> 8U) & 0xFFU)) &=
        ~(1U << ((uint32_t)(clk)&0xFFU));
}






static inline void CLOCK_Select(clock_select_t sel)
{
    *(((volatile uint32_t *)(((uint32_t)(((SYSCON_Type *)(0x40048000u)))) + (((sel) >> 8U) & 0xFFU)))) = ((sel)&0xFFU);
}







static inline void CLOCK_SetClkDivider(clock_divider_t name, uint32_t value)
{
    *((volatile uint32_t *)(((uint32_t)(((SYSCON_Type *)(0x40048000u)))) + ((uint32_t)(name)&0xFFFU))) = value & 0xFFU;
}






static inline uint32_t CLOCK_GetClkDivider(clock_divider_t name)
{
    return *((volatile uint32_t *)(((uint32_t)(((SYSCON_Type *)(0x40048000u)))) + ((uint32_t)(name)&0xFFFU))) & 0xFFU;
}







static inline void CLOCK_SetCoreSysClkDiv(uint32_t value)
{
    ((void) sizeof ((value != 0U) ? 1 : 0), __extension__ ({ if (value != 0U) ; else __assert_fail ("value != 0U", "./fsl_clock.h", 497, __extension__ __PRETTY_FUNCTION__); }));

    ((SYSCON_Type *)(0x40048000u))->SYSAHBCLKDIV = (((SYSCON_Type *)(0x40048000u))->SYSAHBCLKDIV & (~(0xFFU))) | (((uint32_t)(((uint32_t)(value)) << (0U))) & (0xFFU));
}




void CLOCK_SetMainClkSrc(clock_main_clk_src_t src);





void CLOCK_SetFroOutClkSrc(clock_fro_src_t src);







static inline void CLOCK_SetFRGClkMul(uint32_t *base, uint32_t mul)
{
    (*(base)) = (0xFFU);
    (*((uint32_t *)((uint32_t)(base) + 4U))) = (((uint32_t)(((uint32_t)(mul)) << (0U))) & (0xFFU));
}
# 534 "./fsl_clock.h"
uint32_t CLOCK_GetFRG0ClkFreq(void);




uint32_t CLOCK_GetFRG1ClkFreq(void);




uint32_t CLOCK_GetMainClkFreq(void);




uint32_t CLOCK_GetFroFreq(void);




static inline uint32_t CLOCK_GetCoreSysClkFreq(void)
{
    return CLOCK_GetMainClkFreq() / (((SYSCON_Type *)(0x40048000u))->SYSAHBCLKDIV & 0xffU);
}




uint32_t CLOCK_GetClockOutClkFreq(void);




uint32_t CLOCK_GetFreq(clock_name_t clockName);




uint32_t CLOCK_GetSystemPLLInClockRate(void);




static inline uint32_t CLOCK_GetSystemPLLFreq(void)
{
    return CLOCK_GetSystemPLLInClockRate() * ((((SYSCON_Type *)(0x40048000u))->SYSPLLCTRL & (0x1FU)) + 1U);
}




static inline uint32_t CLOCK_GetWdtOscFreq(void)
{
    return g_Wdt_Osc_Freq;
}




static inline uint32_t CLOCK_GetExtClkFreq(void)
{
    return g_Ext_Clk_Freq;
}
# 607 "./fsl_clock.h"
void CLOCK_InitSystemPll(const clock_sys_pll_t *config);


static inline void CLOCK_DenitSystemPll(void)
{

    ((SYSCON_Type *)(0x40048000u))->PDRUNCFG |= (0x80U);
}
# 628 "./fsl_clock.h"
_Bool CLOCK_SetFRG0ClkFreq(uint32_t freq);






_Bool CLOCK_SetFRG1ClkFreq(uint32_t freq);
# 647 "./fsl_clock.h"
void CLOCK_InitExtClkin(uint32_t clkInFreq);




void CLOCK_InitSysOsc(uint32_t oscFreq);






void CLOCK_InitXtalin(uint32_t xtalInFreq);




static inline void CLOCK_DeinitSysOsc(void)
{

    ((SYSCON_Type *)(0x40048000u))->PDRUNCFG |= (0x20U);
}
# 681 "./fsl_clock.h"
void CLOCK_InitWdtOsc(clock_wdt_analog_freq_t wdtOscFreq, uint32_t wdtOscDiv);




static inline void CLOCK_DeinitWdtOsc(void)
{
    ((SYSCON_Type *)(0x40048000u))->PDRUNCFG |= (0x40U);
}






static inline void CLOCK_SetFroOscFreq(clock_fro_osc_freq_t freq)
{
    (*((void (*)(uint32_t freq))((0x0F0026F5U))))(freq);
}
# 709 "./fsl_clock.h"
void SDK_DelayAtLeastUs(uint32_t delay_us);
# 385 "./fsl_common.h" 2






# 1 "./fsl_reset.h" 1
# 11 "./fsl_reset.h"
# 1 "/usr/include/assert.h" 1 3 4
# 67 "/usr/include/assert.h" 3 4
extern void __assert_fail (const char *__assertion, const char *__file,
      unsigned int __line, const char *__function)
     __attribute__ ((__nothrow__ )) __attribute__ ((__noreturn__));


extern void __assert_perror_fail (int __errnum, const char *__file,
      unsigned int __line, const char *__function)
     __attribute__ ((__nothrow__ )) __attribute__ ((__noreturn__));




extern void __assert (const char *__assertion, const char *__file, int __line)
     __attribute__ ((__nothrow__ )) __attribute__ ((__noreturn__));
# 12 "./fsl_reset.h" 2
# 37 "./fsl_reset.h"
typedef enum _SYSCON_RSTn
{
    kFLASH_RST_N_SHIFT_RSTn = 0 | 4U,
    kI2C0_RST_N_SHIFT_RSTn = 0 | 5U,
    kGPIO0_RST_N_SHIFT_RSTn = 0 | 6U,
    kSWM_RST_N_SHIFT_RSTn = 0 | 7U,
    kSCT_RST_N_SHIFT_RSTn = 0 | 8U,
    kWKT_RST_N_SHIFT_RSTn = 0 | 9U,
    kMRT_RST_N_SHIFT_RSTn = 0 | 10U,
    kSPI0_RST_N_SHIFT_RSTn = 0 | 11U,
    kSPI1_RST_N_SHIFT_RSTn = 0 | 12U,
    kCRC_RST_SHIFT_RSTn = 0 | 13U,
    kUART0_RST_N_SHIFT_RSTn = 0 | 14U,
    kUART1_RST_N_SHIFT_RSTn = 0 | 15U,
    kUART2_RST_N_SHIFT_RSTn = 0 | 16U,
    kIOCON_RST_N_SHIFT_RSTn = 0 | 18U,
    kACMP_RST_N_SHIFT_RSTn = 0 | 19U,
    kGPIO1_RST_N_SHIFT_RSTn = 0 | 20U,
    kI2C1_RST_N_SHIFT_RSTn = 0 | 21U,
    kI2C2_RST_N_SHIFT_RSTn = 0 | 22U,
    kI2C3_RST_N_SHIFT_RSTn = 0 | 23U,
    kADC_RST_N_SHIFT_RSTn = 0 | 24U,
    kCTIMER0_RST_N_SHIFT_RSTn = 0 | 25U,
    kDAC0_RST_N_SHIFT_RSTn = 0 | 27U,
    kGPIOINT_RST_N_SHIFT_RSTn = 0 | 28U,
    kDMA_RST_N_SHIFT_RSTn = 0 | 29U,
    kUART3_RST_N_SHIFT_RSTn = 0 | 30U,
    kUART4_RST_N_SHIFT_RSTn = 0 | 31U,

    kCAPT_RST_N_SHIFT_RSTn = 65536 | 0U,
    kDAC1_RST_N_SHIFT_RSTn = 65536 | 1U,
    kFRG0_RST_N_SHIFT_RSTn = 65536 | 3U,
    kFRG1_RST_N_SHIFT_RSTn = 65536 | 4U,

} SYSCON_RSTn_t;
# 152 "./fsl_reset.h"
typedef SYSCON_RSTn_t reset_ip_name_t;
# 169 "./fsl_reset.h"
void RESET_PeripheralReset(reset_ip_name_t peripheral);
# 392 "./fsl_common.h" 2
# 419 "./fsl_common.h"
    static inline status_t EnableIRQ(IRQn_Type interrupt)
    {
        if (NotAvail_IRQn == interrupt)
        {
            return kStatus_Fail;
        }
# 436 "./fsl_common.h"
        __NVIC_EnableIRQ(interrupt);

        return kStatus_Success;
    }
# 457 "./fsl_common.h"
    static inline status_t DisableIRQ(IRQn_Type interrupt)
    {
        if (NotAvail_IRQn == interrupt)
        {
            return kStatus_Fail;
        }
# 474 "./fsl_common.h"
    __NVIC_DisableIRQ(interrupt);

        return kStatus_Success;
    }
# 487 "./fsl_common.h"
    static inline uint32_t DisableGlobalIRQ(void)
    {
# 499 "./fsl_common.h"
    uint32_t regPrimask = __get_PRIMASK();

    __disable_irq();

    return regPrimask;


    }
# 518 "./fsl_common.h"
    static inline void EnableGlobalIRQ(uint32_t primask)
    {





    __set_PRIMASK(primask);


    }
# 555 "./fsl_common.h"
    void EnableDeepSleepIRQ(IRQn_Type interrupt);
# 570 "./fsl_common.h"
    void DisableDeepSleepIRQ(IRQn_Type interrupt);
# 582 "./fsl_common.h"
    void *SDK_Malloc(size_t size, size_t alignbytes);






    void SDK_Free(void *ptr);
# 12 "./fsl_power.h" 2
# 27 "./fsl_power.h"
typedef enum pd_bits
{
    kPDRUNCFG_PD_FRO_OUT = (0x1U),
    kPDRUNCFG_PD_FRO = (0x2U),
    kPDRUNCFG_PD_FLASH = (0x4U),
    kPDRUNCFG_PD_BOD = (0x8U),
    kPDRUNCFG_PD_ADC0 = (0x10U),
    kPDRUNCFG_PD_SYSOSC = (0x20U),
    kPDRUNCFG_PD_WDT_OSC = (0x40U),
    kPDRUNCFG_PD_SYSPLL = (0x80U),
    kPDRUNCFG_PD_DAC0 = (0x2000U),
    kPDRUNCFG_PD_DAC1 = (0x4000U),
    kPDRUNCFG_PD_ACMP = (0x8000U),





    kPDRUNCFG_ForceUnsigned = (int)0x80000000U,
} pd_bit_t;


enum _power_wakeup
{
    kPDAWAKECFG_Wakeup_FRO_OUT = (0x1U),
    kPDAWAKECFG_Wakeup_FRO = (0x2U),
    kPDAWAKECFG_Wakeup_FLASH = (0x4U),
    kPDAWAKECFG_Wakeup_BOD = (0x8U),
    kPDAWAKECFG_Wakeup_ADC = (0x10U),
    kPDAWAKECFG_Wakeup_SYSOSC = (0x20U),
    kPDAWAKECFG_Wakeup_WDT_OSC = (0x40U),
    kPDAWAKECFG_Wakeup_SYSPLL = (0x80U),
    kPDAWAKECFG_Wakeup_VREFF2 = (0x400U),
    kPDAWAKECFG_Wakeup_DAC0 = (0x2000U),
    kPDAWAKECFG_Wakeup_DAC1 = (0x4000U),
    kPDAWAKECFG_Wakeup_ACMP = (0x8000U),
};


enum _power_deep_sleep_active
{
    kPDSLEEPCFG_DeepSleepBODActive = (0x8U),
    kPDSLEEPCFG_DeepSleepWDTOscActive = (0x40U),
};


typedef enum _power_gen_reg
{
    kPmu_GenReg0 = 0U,
    kPmu_GenReg1 = 1U,
    kPmu_GenReg2 = 2U,
    kPmu_GenReg3 = 3U,
    kPmu_GenReg4 = 4U,
} power_gen_reg_t;


typedef enum _power_mode_config
{
    kPmu_Sleep = 0U,
    kPmu_Deep_Sleep = 1U,
    kPmu_PowerDown = 2U,
    kPmu_Deep_PowerDown = 3U,
} power_mode_cfg_t;
# 110 "./fsl_power.h"
static inline void POWER_EnablePD(pd_bit_t en)
{
    ((SYSCON_Type *)(0x40048000u))->PDRUNCFG |= en;
}







static inline void POWER_DisablePD(pd_bit_t en)
{
    ((SYSCON_Type *)(0x40048000u))->PDRUNCFG &= ~en;
}







static inline void POWER_WakeUpConfig(uint32_t mask, _Bool powerDown)
{
    if (powerDown)
    {
        ((SYSCON_Type *)(0x40048000u))->PDAWAKECFG |= mask;
    }
    else
    {
        ((SYSCON_Type *)(0x40048000u))->PDAWAKECFG &= ~mask;
    }
}







static inline void POWER_DeepSleepConfig(uint32_t mask, _Bool powerDown)
{
    if (powerDown)
    {
        ((SYSCON_Type *)(0x40048000u))->PDSLEEPCFG |= mask;
    }
    else
    {
        ((SYSCON_Type *)(0x40048000u))->PDSLEEPCFG &= ~mask;
    }
}
# 175 "./fsl_power.h"
static inline void POWER_EnableDeepSleep(void)
{
    ((SCB_Type *) ((0xE000E000UL) + 0x0D00UL) )->SCR |= (1UL << 2U);
}







static inline void POWER_DisableDeepSleep(void)
{
    ((SCB_Type *) ((0xE000E000UL) + 0x0D00UL) )->SCR &= ~(1UL << 2U);
}
# 203 "./fsl_power.h"
void POWER_EnterSleep(void);







void POWER_EnterDeepSleep(uint32_t activePart);







void POWER_EnterPowerDown(uint32_t activePart);






void POWER_EnterDeepPowerDownMode(void);






static inline uint32_t POWER_GetSleepModeFlag(void)
{
    return (((PMU_Type *)(0x40020000u))->PCON & (0x100U)) >> (8U);
}





static inline void POWER_ClrSleepModeFlag(void)
{
    ((PMU_Type *)(0x40020000u))->PCON |= (0x100U);
}






static inline uint32_t POWER_GetDeepPowerDownModeFlag(void)
{
    return (((PMU_Type *)(0x40020000u))->PCON & (0x800U)) >> (11U);
}





static inline void POWER_ClrDeepPowerDownModeFlag(void)
{
    ((PMU_Type *)(0x40020000u))->PCON |= (0x800U);
}






static inline void POWER_EnableNonDpd(_Bool enable)
{
    if (enable)
    {
        ((PMU_Type *)(0x40020000u))->PCON |= (0x8U);
    }
    else
    {
        ((PMU_Type *)(0x40020000u))->PCON &= ~(0x8U);
    }
}






static inline void POWER_EnbaleLPO(_Bool enable)
{
    if (enable)
    {
        ((PMU_Type *)(0x40020000u))->DPDCTRL |= (0x4U);
    }
    else
    {
        ((PMU_Type *)(0x40020000u))->DPDCTRL &= ~(0x4U);
    }
}






static inline void POWER_EnbaleLPOInDeepPowerDownMode(_Bool enable)
{
    if (enable)
    {
        ((PMU_Type *)(0x40020000u))->DPDCTRL |= (0x8U);
    }
    else
    {
        ((PMU_Type *)(0x40020000u))->DPDCTRL &= ~(0x8U);
    }
}







static inline void POWER_SetRetainData(power_gen_reg_t index, uint32_t data)
{
    if (index <= kPmu_GenReg3)
    {
        ((PMU_Type *)(0x40020000u))->GPREG[index] = data;
    }
    else
    {

        ((PMU_Type *)(0x40020000u))->DPDCTRL = (((PMU_Type *)(0x40020000u))->DPDCTRL & (~(0xFFFFFF00U))) | (((uint32_t)(((uint32_t)(data)) << (8U))) & (0xFFFFFF00U));
    }
}







static inline uint32_t POWER_GetRetainData(power_gen_reg_t index)
{
    if (index == kPmu_GenReg4)
    {
        return (((PMU_Type *)(0x40020000u))->DPDCTRL & (0xFFFFFF00U)) >> (8U);
    }

    return ((PMU_Type *)(0x40020000u))->GPREG[index];
}







static inline void POWER_EnableWktClkIn(_Bool enable, _Bool enHysteresis)
{
    ((PMU_Type *)(0x40020000u))->DPDCTRL = (((PMU_Type *)(0x40020000u))->DPDCTRL & (~((0x10U) | (0x20U)))) |
                   (((uint32_t)(((uint32_t)(enable)) << (5U))) & (0x20U)) | (((uint32_t)(((uint32_t)(enHysteresis)) << (4U))) & (0x10U));
}







static inline void POWER_EnableWakeupPinForDeepPowerDown(_Bool enable, _Bool enHysteresis)
{
    ((PMU_Type *)(0x40020000u))->DPDCTRL = (((PMU_Type *)(0x40020000u))->DPDCTRL & (~((0x1U) | (0x2U)))) |
                   (((uint32_t)(((uint32_t)(!enable)) << (1U))) & (0x2U)) | (((uint32_t)(((uint32_t)(enHysteresis)) << (0U))) & (0x1U));
}







static inline void POWER_EnableResetPinForDeepPowerDown(_Bool enable, _Bool enHysteresis)
{
    ((PMU_Type *)(0x40020000u))->DPDCTRL = (((PMU_Type *)(0x40020000u))->DPDCTRL & (~((0x40U) | (0x80U)))) |
                   (((uint32_t)(((uint32_t)(!enable)) << (7U))) & (0x80U)) | (((uint32_t)(((uint32_t)(enHysteresis)) << (6U))) & (0x40U));
}
# 29 "clock_config.c" 2

# 1 "./clock_config.h" 1
# 31 "./clock_config.h"
void BOARD_InitBootClocks(void);
# 56 "./clock_config.h"
void BOARD_BootClockFRO18M(void);
# 81 "./clock_config.h"
void BOARD_BootClockFRO24M(void);
# 106 "./clock_config.h"
void BOARD_BootClockFRO30M(void);
# 131 "./clock_config.h"
void BOARD_BootClockPll24M(void);
# 31 "clock_config.c" 2
# 40 "clock_config.c"
extern uint32_t SystemCoreClock;




void BOARD_InitBootClocks(void)
{
    BOARD_BootClockFRO18M();
}
# 78 "clock_config.c"
void BOARD_BootClockFRO18M(void)
{


    POWER_DisablePD(kPDRUNCFG_PD_FRO_OUT);
    POWER_DisablePD(kPDRUNCFG_PD_FRO);
    CLOCK_SetFroOscFreq(kCLOCK_FroOscOut18M);
    CLOCK_SetFroOutClkSrc(kCLOCK_FroSrcFroOsc);
    POWER_DisablePD(kPDRUNCFG_PD_SYSOSC);
    CLOCK_Select(kEXT_Clk_From_SysOsc);
    CLOCK_SetMainClkSrc(kCLOCK_MainClkSrcFro);
    CLOCK_SetCoreSysClkDiv(1U);

    SystemCoreClock = 18000000U;
}
# 121 "clock_config.c"
void BOARD_BootClockFRO24M(void)
{


    POWER_DisablePD(kPDRUNCFG_PD_FRO_OUT);
    POWER_DisablePD(kPDRUNCFG_PD_FRO);
    CLOCK_SetFroOscFreq(kCLOCK_FroOscOut24M);
    CLOCK_SetFroOutClkSrc(kCLOCK_FroSrcFroOsc);
    POWER_DisablePD(kPDRUNCFG_PD_SYSOSC);
    CLOCK_Select(kEXT_Clk_From_SysOsc);
    CLOCK_SetMainClkSrc(kCLOCK_MainClkSrcFro);
    CLOCK_SetCoreSysClkDiv(1U);

    SystemCoreClock = 24000000U;
}
# 162 "clock_config.c"
void BOARD_BootClockFRO30M(void)
{


    POWER_DisablePD(kPDRUNCFG_PD_FRO_OUT);
    POWER_DisablePD(kPDRUNCFG_PD_FRO);
    CLOCK_SetFroOscFreq(kCLOCK_FroOscOut30M);
    CLOCK_SetFroOutClkSrc(kCLOCK_FroSrcFroOsc);
    POWER_DisablePD(kPDRUNCFG_PD_SYSOSC);
    CLOCK_Select(kEXT_Clk_From_SysOsc);
    CLOCK_SetMainClkSrc(kCLOCK_MainClkSrcFro);
    CLOCK_SetCoreSysClkDiv(1U);

    SystemCoreClock = 30000000U;
}
# 206 "clock_config.c"
void BOARD_BootClockPll24M(void)
{


    POWER_DisablePD(kPDRUNCFG_PD_FRO_OUT);
    POWER_DisablePD(kPDRUNCFG_PD_FRO);
    CLOCK_SetFroOscFreq(kCLOCK_FroOscOut24M);
    CLOCK_SetFroOutClkSrc(kCLOCK_FroSrcFroOsc);
    POWER_DisablePD(kPDRUNCFG_PD_SYSOSC);
    CLOCK_Select(kEXT_Clk_From_SysOsc);
    clock_sys_pll_t config;
    config.src = kCLOCK_SysPllSrcFRO;
    config.targetFreq = 24000000U;
    CLOCK_InitSystemPll(&config);
    CLOCK_SetMainClkSrc(kCLOCK_MainClkSrcSysPll);
    CLOCK_SetCoreSysClkDiv(1U);

    SystemCoreClock = 24000000U;
}
