fsl_clock.h:627:20:CLOCK_EnableClock	24	static
fsl_port.h:243:20:PORT_SetPinConfig	32	static
fsl_port.h:346:20:PORT_SetPinMux	24	static
pin_mux.c:99:6:BOARD_InitBootPins	8	static
pin_mux.c:122:6:BOARD_InitPins	8	static
pin_mux.c:164:6:BOARD_InitLEDsPins	32	static
pin_mux.c:264:6:BOARD_InitButtonsPins	24	static
pin_mux.c:340:6:BOARD_InitDEBUG_UARTPins	16	static
pin_mux.c:411:6:BOARD_InitAccelPins	32	static
pin_mux.c:527:6:BOARD_InitSDHCPins	32	static
pin_mux.c:649:6:BOARD_InitOSCPins	8	static
pin_mux.c:679:6:BOARD_InitPOTPins	16	static
pin_mux.c:719:6:BOARD_InitLSENSEPins	4	static
